Код паціента,ПІБ,Стать,Вік,Дослід,Прим,Дата,Лікар,Прим1,сеча,ліквор,інше,вичеркнути,поліс,врач велеса,строк вагітності,зіскріб,кров,слина,датабокса,нумер,email,код лікаря,import
279,"Осадчук В.В.",,,1455,,"06/21/18 00:00:00","Серволаб",,0,0,0,0,,,,0,0,0,"12/30/99 10:09:26",0,,,0
298,"Мусієнко І.М.",,,1440,,"06/21/18 00:00:00","Серволаб",,0,0,0,0,,,,0,0,0,"12/30/99 10:17:09",0,,,0
1094,"Гудова С.А.",,,259,,"06/25/18 00:00:00","Серволаб",,0,0,0,0,,,,0,0,0,"12/30/99 10:39:32",0,,,0
1524,"Топоровська А.И.",,,1891,"матеріал дослідження кров","06/26/18 00:00:00","Серволаб",,0,0,0,0,,,,0,1,0,"12/30/99 10:33:47",0,,,0
1525,"Топоровська А.И.",,,1892,"матеріал дослідження кров","06/26/18 00:00:00","Серволаб",,0,0,0,0,,,,0,1,0,"12/30/99 10:34:45",0,,,0
8608,"Калмиков Е.С.",,,252,,"07/04/18 00:00:00","Серволаб","50-10-30-5А",0,0,0,0,,,,0,0,0,"12/30/99 11:39:56",0,,,0
8611,"Кащук О.Б.",,,253,,"07/04/18 00:00:00","Серволаб","1Т-10-70-3А",0,0,0,0,,,,0,0,0,"12/30/99 11:41:27",0,,,0
10380,"Аванесов А.С.",,,692,,"08/01/18 00:00:00","Серволаб","8М-82-1Т-29",0,0,0,0,,,,0,0,0,"12/30/99 09:06:09",0,,,0
10381,"Аванесов А.С.",,,693,,"08/01/18 00:00:00","Серволаб",,0,0,0,0,,,,0,0,0,"12/30/99 09:07:25",0,,,0
10499,"Левченко Т.В.",,,614,"матеріал дослідження кров","08/03/18 00:00:00","Серволаб",,0,0,0,0,,,,0,1,0,"12/30/99 08:07:23",0,,,0
10507,"Алиева О.И.",,,622,"матеріал дослідження кров","08/03/18 00:00:00","Серволаб",,0,0,0,0,,,,0,1,0,"12/30/99 08:14:33",0,,,0
10508,"Алиева О.И.",,,623,,"08/03/18 00:00:00","Серволаб",,0,0,0,0,,,,0,0,0,"12/30/99 08:15:07",0,,,0
11352,"Антонець О.І.",,,673,,"08/21/18 00:00:00","Серволаб","87-58-20-51",0,0,0,0,,,,0,0,0,"12/30/99 10:05:50",0,,,0
12032,"Шалдирван І.І.",,,564,,"09/04/18 00:00:00","Серволаб",,0,0,0,0,,,,0,0,0,"12/30/99 10:04:35",0,,,0
12033,"Шалдирван І.І.",,,565,,"09/04/18 00:00:00","Серволаб",,0,0,0,0,,,,0,0,0,"12/30/99 10:07:28",0,,,0
12102,"Аванесов А.С.",,,634,,"09/05/18 00:00:00","Серволаб",,0,0,0,0,,,,0,0,0,"12/30/99 07:24:42",0,,,0
12157,"Забранська В.М.",,,689,,"09/06/18 00:00:00","Серволаб",,0,0,0,0,,,,0,0,0,"12/30/99 10:22:01",0,,,0
12162,"Шатненко Л.О.",,,693,,"09/06/18 00:00:00","Серволаб",,0,0,0,0,,,,0,0,0,"12/30/99 10:46:30",0,,,0
12712,"Сулейманов Д.О.",,,643,,"09/17/18 00:00:00","Серволаб",,0,0,0,0,,,,0,1,0,"12/30/99 11:08:57",0,,,0
12798,"Глибіцька А.Г.",,,529,"матеріал дослідження кров","09/18/18 00:00:00","Серволаб","27-12-2А-2К",0,0,0,0,,,,0,1,0,"12/30/99 08:31:18",0,,,0
13033,"Борт Л.В.",,,584,,"09/24/18 00:00:00","Серволаб",,0,0,0,0,,,,0,0,0,"12/30/99 10:01:58",0,,,0
13074,"Дмитренко О.В.",,,612,"матеріал дослідження кров","09/24/18 00:00:00","Серволаб","3М-7А-75-4D",0,0,0,0,,,,0,1,0,"12/30/99 08:45:49",0,,,0
13307,"Стародуб А.В.",,,639,,"09/27/18 00:00:00","Серволаб",,0,0,0,0,,,,0,0,0,"12/30/99 09:28:21",0,,,0
29313,"Самойлова А.И.",,,620,,"06/11/18 00:00:00","Серволаб",,0,0,0,0,,,,0,0,0,"12/30/99 09:33:11",0,,,0
29314,"Самойлова А.И.",,,621,,"06/11/18 00:00:00","Серволаб",,0,0,0,0,,,,0,0,0,"12/30/99 09:34:20",0,,,0
154920,"Сікач О.В.",,,1262,,"03/13/18 00:00:00","Серволаб",,0,0,0,0,,,,0,0,0,"12/30/99 10:59:40",0,,,0
155837,"Ейзер М.Ю.",,,339,,"03/15/18 00:00:00","Серволаб",,0,0,0,0,,,,0,0,0,"12/30/99 11:05:44",0,,,0
157737,"Ейзер М.Ю.",,,214,,"03/21/18 00:00:00","Серволаб",,0,0,0,0,,,,0,0,0,"12/30/99 11:21:04",0,,,0
157831,"Сікач М.О.",,,72,,"03/21/18 00:00:00","Серволаб",,0,0,0,0,,,,0,0,0,"12/30/99 11:42:35",0,,,0
157832,"Сікач Н.О.",,,73,,"03/21/18 00:00:00","Серволаб",,0,0,0,0,,,,0,0,0,"12/30/99 11:42:48",0,,,0
159735,"Сікач С.Л.",,,1366,,"03/27/18 00:00:00","Серволаб",,0,0,0,0,,,,0,0,0,"12/30/99 11:28:51",0,,,0
160282,"Сікач С.Л.",,,1617,,"03/28/18 00:00:00","Серволаб",,0,0,0,0,,,,0,0,0,"12/30/99 11:42:03",0,,,0
160610,"Льодін Т.Г.",,,1720,,"03/29/18 00:00:00","Серволаб",,0,0,0,0,,,,0,0,0,"12/30/99 11:16:15",0,,,0
161030,"Лупан О.С.",,,271,,"03/30/18 00:00:00","Серволаб",,0,0,0,0,,,,0,0,0,"12/30/99 11:41:04",0,,,0
162561,"Штонденко О.Ю.",,,1506,,"04/04/18 00:00:00","Серволаб",,0,0,0,0,,,,0,0,0,"12/30/99 11:51:20",0,,,0
164917,"Баранова Н.Б.",,,1343,,"04/13/18 00:00:00","Серволаб",,0,0,0,0,,,,0,0,0,"12/30/99 11:50:03",0,,,0
167847,"Товчига О.Г.",,,1720,,"04/24/18 00:00:00","Серволаб",,0,0,0,0,,,,0,0,0,"12/30/99 10:19:50",0,,,0
167855,"Попов П.",,,1711,,"04/24/18 00:00:00","Серволаб",,0,0,0,0,,,,0,0,0,"12/30/99 10:21:49",0,,,0
168740,"Ященко Н.",,,256,,"04/26/18 00:00:00","Серволаб",,0,0,0,0,,,,0,0,0,"12/30/99 11:01:20",0,,,0
172433,"Уманский Р.О.",,,426,,"05/14/18 00:00:00","Серволаб",,0,0,0,0,,,,0,0,0,"12/30/99 10:27:21",,,,0
174015,"Коваль В.В.",,,1075,,"05/17/18 00:00:00","Серволаб",,0,0,0,0,,,,0,0,0,"12/30/99 11:13:45",,,,0
174338,"Михайлів В.П.",,,1249,,"05/18/18 00:00:00","Серволаб",,0,0,0,0,,,,0,0,0,"12/30/99 10:51:03",,,,0
174661,"Коваль В.В.",,,1438,,"05/21/18 00:00:00","Серволаб",,0,0,0,0,,,,0,0,0,"12/30/99 10:23:42",,,,0
175261,"Несен І.Ф.",,,48,,"05/22/18 00:00:00","Серволаб",,0,0,0,0,,,,0,0,0,"12/30/99 11:05:57",,,,0
175263,"Головко І.В.",,,64,,"05/22/18 00:00:00","Серволаб",,0,0,0,0,,,,0,0,0,"12/30/99 11:07:59",,,,0
175264,"Несена А.І.",,,49,,"05/22/18 00:00:00","Серволаб",,0,0,0,0,,,,0,0,0,"12/30/99 11:06:38",,,,0
175584,"Михайлів В.П.",,,1615,,"05/23/18 00:00:00","Серволаб",,0,0,0,0,,,,0,0,0,"12/30/99 10:26:00",,,,0
177829,"Криворучко О.М.",,,419,,"05/31/18 00:00:00","Серволаб",,0,0,0,0,,,,0,0,0,"12/30/99 10:31:18",,,,0
178946,"Ковальський В.І.",,,1048,,"06/04/18 00:00:00","Серволаб",,0,0,0,0,,,,0,0,0,"12/30/99 12:10:20",0,,,0
179845,"Сеник А.Д.",,,1477,"матеріал дослідження кров","06/07/18 00:00:00","Серволаб",,0,0,0,0,,,,0,1,0,"12/30/99 10:11:47",0,,,0
179846,"Сеник А.Д.",,,1478,,"06/07/18 00:00:00","Серволаб",,0,0,0,0,,,,0,0,1,"12/30/99 10:12:38",0,,,0
183680,"Павлишин Б.В.",,,1865,"матеріал дослідження кров","07/06/18 00:00:00","Серволаб",,0,0,0,0,,,,0,1,0,"12/30/99 10:08:30",0,,,0
184252,"Романова М.П.",,,51,,"07/09/18 00:00:00","Серволаб",,0,0,0,0,,,,0,0,0,"12/30/99 10:44:20",0,,,0
185263,"Коренюк Ж.",,,1194,"матеріал дослідження кров","07/02/18 00:00:00","Серволаб",,0,0,0,0,,,,0,1,0,"12/30/99 11:45:57",0,,,0
185576,"Мельник Н.Ф.",,,1257,,"07/03/18 00:00:00","Серволаб",,0,0,0,0,,,,0,0,0,"12/30/99 09:54:49",0,,,0
186060,"Лепікаш О.Е.",,,1483,,"07/04/18 00:00:00","Серволаб",,0,0,0,0,,,,0,0,0,"12/30/99 10:25:24",0,,,0
186598,"Христенко К.С.",,,1375,,"07/11/18 00:00:00","Серволаб",,0,0,0,0,,,,0,0,0,"12/30/99 10:11:31",0,,,0
186813,"Рибальченко О.В.",,,1445,,"07/11/18 00:00:00","Серволаб",,0,0,0,0,,,,0,0,0,"12/30/99 11:23:56",0,,,0
187907,"Майструк Н.О.",,,293,,"07/16/18 00:00:00","Серволаб",,0,0,0,0,,,,0,0,0,"12/30/99 11:14:30",0,,,0
187987,"Романова М.П.",,,319,,"07/16/18 00:00:00","Серволаб",,0,0,0,0,,,,0,0,0,"12/30/99 11:34:04",0,,,0
188174,"Фасхутдінова Г.Р.",,,1004,,"07/17/18 00:00:00","Серволаб",,0,0,0,0,,,,0,0,0,"12/30/99 09:55:32",0,,,0
188209,"Савченко Е.И.",,,1975,,"07/17/18 00:00:00","Серволаб",,0,0,0,0,,,,0,0,0,"12/30/99 10:24:25",0,,,0
188602,"Позняк Михайло",,,1170,,"07/18/18 00:00:00","Серволаб",,0,0,0,0,,,,0,0,0,"12/30/99 10:49:30",0,,,0
188900,"Романова М.В.",,,1333,,"07/19/18 00:00:00","Серволаб",,0,0,0,0,,,,0,0,0,"12/30/99 09:58:39",0,,,0
189324,"Колесникова М.Р.",,,1487,,"07/20/18 00:00:00","Серволаб",,0,0,0,0,,,,0,0,0,"12/30/99 10:23:04",0,,,0
189423,"Кравцова Ю.М.",,,139,,"07/20/18 00:00:00","Серволаб",,0,0,0,0,,,,0,0,0,"12/30/99 10:56:42",0,,,0
189736,"Денисова И.В.",,,1644,,"07/23/18 00:00:00","Серволаб",,0,0,0,0,,,,0,0,0,"12/30/99 10:54:48",0,,,0
189814,"Шахтімір М.О.",,,1633,,"07/23/18 00:00:00","Серволаб",,0,0,0,0,,,,0,0,0,"12/30/99 11:10:29",0,,,0
190140,"Бойко О.Л.",,,1735,,"07/24/18 00:00:00","Серволаб",,0,0,0,0,,,,0,0,0,"12/30/99 10:02:49",0,,,0
190142,"Шпак И.С.",,,1733,"матеріал дослідження кров","07/24/18 00:00:00","Серволаб",,0,0,0,0,,,,0,1,0,"12/30/99 10:04:36",0,,,0
190526,"Ходикін В.В.",,,1017,,"07/25/18 00:00:00","Серволаб",,0,0,0,0,,,,0,0,0,"12/30/99 10:29:52",0,,,0
190970,"Кулаковська О.В.",,,1133,,"07/26/18 00:00:00","Серволаб",,0,0,0,0,,,,0,0,0,"12/30/99 10:57:01",0,,,0
190975,"Олейник Л.М.",,,1130,,"07/26/18 00:00:00","Серволаб",,0,0,0,0,,,,0,0,0,"12/30/99 11:00:43",0,,,0
191056,"Тваровський В.М.",,,391,,"07/26/18 00:00:00","Серволаб",,0,0,0,0,,,,0,0,0,"12/30/99 11:26:54",0,,,0
192778,"Страха С.С.",,,266,,"08/02/18 00:00:00","Серволаб",,0,0,0,0,,,,0,0,0,"12/30/99 10:46:13",0,,,0
192781,"Глоба С.П.",,,268,"матеріал дослідження кров","08/02/18 00:00:00","Серволаб",,0,0,0,0,,,,0,1,0,"12/30/99 10:48:15",0,,,0
193760,"Кашлякова Л.І.",,,1214,,"08/06/18 00:00:00","Серволаб",,0,0,0,0,,,,0,0,0,"12/30/99 11:55:11",0,,,0
195221,"Высочина А.Б.",,,1946,"матеріал дослідження кров","08/13/18 00:00:00","Серволаб",,0,0,0,0,,,,0,1,0,"12/30/99 09:52:25",0,,,0
195378,"Тертична А.В.",,,215,,"08/13/18 00:00:00","Серволаб",,0,0,0,0,,,,0,0,0,"12/30/99 11:01:01",0,,,0
196094,"Мороз А.А.",,,98,,"08/15/18 00:00:00","Серволаб",,0,0,0,0,,,,0,0,0,"12/30/99 10:48:53",0,,,0
196095,"Ясько В.Г.",,,1228,,"08/15/18 00:00:00","Серволаб",,0,0,0,0,,,,0,0,0,"12/30/99 10:48:49",0,,,0
196503,"Воробей О.О.",,,399,,"08/16/18 00:00:00","Серволаб",,0,0,0,0,,,,0,0,0,"12/30/99 11:34:20",0,,,0
196554,"Донець М.А.",,,1455,,"08/16/18 00:00:00","Серволаб",,0,0,0,0,,,,0,0,0,"12/30/99 11:49:22",0,,,0
196714,"Дзюба Н.В.",,,1502,"матеріал дослідження кров","08/17/18 00:00:00","Серволаб",,0,0,0,0,,,,0,1,0,"12/30/99 10:11:50",0,,,0
196832,"Ясько А.Л.",,,1537,"При високому рівні тригліцеридів підрахунок  ліпопротеідів некоректний","08/17/18 00:00:00","Серволаб",,0,0,0,0,,,,0,1,0,"12/30/99 11:33:38",0,,,0
196986,"Баклан С.П.",,,1671,,"08/20/18 00:00:00","Серволаб",,0,0,0,0,,,,0,0,0,"12/30/99 09:40:53",0,,,0
197746,"Чепілко В.О.",,,1897,,"08/22/18 00:00:00","Серволаб",,0,0,0,0,,,,0,0,0,"12/30/99 10:23:04",0,,,0
197753,"Лужинецька А.О.",,,1887,,"08/22/18 00:00:00","Серволаб",,0,0,0,0,,,,0,0,0,"12/30/99 10:25:38",0,,,0
197754,"Лужинецька А.О.",,,1888,,"08/22/18 00:00:00","Серволаб",,0,0,0,0,,,,0,0,0,"12/30/99 10:27:22",0,,,0
198151,"Виноградов М.И.",,,1964,,"08/23/18 00:00:00","Серволаб",,0,0,0,0,,,,0,0,0,"12/30/99 10:39:14",0,,,0
198209,"Зарицька І.С.(22-68-72-6Д)",,,237,,"08/23/18 00:00:00","Серволаб",,0,0,0,0,,,,0,0,0,"12/30/99 11:15:42",0,,,0
198466,"Кривенко А.В.",,,1171,,"08/27/18 00:00:00","Серволаб",,0,0,0,0,,,,0,0,0,"12/30/99 10:06:48",0,,,0
198480,"Демковская Е.В.",,,1154,,"08/27/18 00:00:00","Серволаб",,0,0,0,0,,,,0,0,0,"12/30/99 10:14:56",0,,,0
198483,"Демковская Е.В.",,,1155,,"08/27/18 00:00:00","Серволаб",,0,0,0,0,,,,0,0,0,"12/30/99 10:16:17",0,,,0
198893,"Осаволюк І.Ю.",,,1284,,"08/28/18 00:00:00","Серволаб",,0,0,0,0,,,,0,0,0,"12/30/99 10:17:20",0,,,0
198965,"Ткаченко А.М.",,,334,,"08/28/18 00:00:00","Серволаб",,0,0,0,0,,,,0,0,0,"12/30/99 11:11:18",0,,,0
199007,"Бичкова В.І.",,,325,,"08/28/18 00:00:00","Серволаб",,0,0,0,0,,,,0,0,0,"12/30/99 11:24:52",0,,,0
199008,"Чалюк М.Г.",,,326,,"08/28/18 00:00:00","Серволаб",,0,0,0,0,,,,0,0,0,"12/30/99 11:25:14",0,,,0
199243,"Врещ Т.А.",,,379,,"08/29/18 00:00:00","Серволаб",,0,0,0,0,,,,0,0,0,"12/30/99 11:18:06",0,,,0
199255,"Заплотинська О.М.",,,386,,"08/29/18 00:00:00","Серволаб",,0,0,0,0,,,,0,0,0,"12/30/99 11:20:47",0,,,0
199381,"Васильева М.А.",,,1442,"матеріал дослідження зіскріб","08/29/18 00:00:00","Серволаб",,0,0,0,0,,,,1,0,0,"12/30/99 12:15:27",0,,,0
199638,"Заплотинська О.М.",,,443,"матеріал дослідження кров","08/30/18 00:00:00","Серволаб",,0,0,0,0,,,,0,1,0,"12/30/99 11:17:10",0,,,0
199645,"Захариади Н.О.",,,447,,"08/30/18 00:00:00","Серволаб",,0,0,0,0,,,,0,0,0,"12/30/99 11:18:15",0,,,0
200156,"Заплотинська О.М.",,,443,,"08/31/18 00:00:00","Серволаб","30.08",0,0,0,0,,,,0,0,0,"12/30/99 11:46:08",0,,,0
200194,"Садоненко К.А.",,,494,,"08/31/18 00:00:00","Серволаб",,0,0,0,0,,,,0,0,0,"12/30/99 11:52:15",0,,,0
200290,"Позднякова В.М.",,,1886,"матеріал дослідження кров","09/03/18 00:00:00","Серволаб",,0,0,0,0,,,,0,1,0,"12/30/99 10:11:46",0,,,0
200781,"Чечотенко О.С.",,,208,,"09/04/18 00:00:00","Серволаб",,0,0,0,0,,,,0,0,0,"12/30/99 11:01:11",0,,,0
201128,"Леонов А.В.",,,244,,"09/05/18 00:00:00","Серволаб",,0,0,0,0,,,,0,0,0,"12/30/99 11:28:50",0,,,0
201619,"Кива Л.И.",,,1301,,"09/06/18 00:00:00","Серволаб",,0,0,0,0,,,,0,0,0,"12/30/99 12:09:54",0,,,0
202138,"Мартиненко О.С.",,,1564,"матеріал дослідження кров","09/10/18 00:00:00","Серволаб",,0,0,0,0,,,,0,1,0,"12/30/99 10:54:48",0,,,0
202140,"Мартиненко О.С.",,,1565,"матеріал дослідження зіскріб","09/10/18 00:00:00","Серволаб",,0,0,0,0,,,,1,0,0,"12/30/99 10:55:37",0,,,0
202394,"Сагетдинов К.Н.",,,412,,"09/10/18 00:00:00","Серволаб",,0,0,0,0,,,,0,0,0,"12/30/99 12:07:50",0,,,0
202624,"Терновський Я.Ю.",,,1755,,"09/11/18 00:00:00","Серволаб",,0,0,0,0,,,,0,0,0,"12/30/99 10:35:40",0,,,0
202639,"Бельская И.В.",,,1769,,"09/11/18 00:00:00","Серволаб",,0,0,0,0,,,,0,0,0,"12/30/99 10:45:38",0,,,0
202668,"Майборода І.І.",,,494,,"09/11/18 00:00:00","Серволаб",,0,0,0,0,,,,0,0,0,"12/30/99 11:00:02",0,,,0
202678,"Ожема Т.И.",,,105,,"09/11/18 00:00:00","Серволаб",,0,0,0,0,,,,0,0,0,"12/30/99 11:05:07",0,,,0
203039,"Гандзюр Р.В.",,,1323,,"09/12/18 00:00:00","Серволаб",,0,0,0,0,,,,0,0,0,"12/30/99 11:16:47",0,,,0
203394,"Лаврінець Н.Д.",,,208,,"09/13/18 00:00:00","Серволаб",,0,0,0,0,,,,0,0,0,"12/30/99 11:34:16",0,,,0
203809,"Леонов А.В.",,,234,,"09/14/18 00:00:00","Серволаб",,0,0,0,0,,,".",0,0,0,"12/30/99 11:20:12",0,,,0
203811,"Леонов А.В.",,,235,,"09/14/18 00:00:00","Серволаб",,0,0,0,0,,,,0,0,0,"12/30/99 11:20:47",0,,,0
203820,"Кислая М.А.",,,240,,"09/14/18 00:00:00","Серволаб",,0,0,0,0,,,,0,0,0,"12/30/99 11:22:34",0,,,0
203825,"Панюхно А.М.",,,242,,"09/14/18 00:00:00","Серволаб",,0,0,0,0,,,,0,0,0,"12/30/99 11:24:16",0,,,0
204145,"Скаленко Ю.А.",,,1716,,"09/17/18 00:00:00","Серволаб",,0,0,0,0,,,,0,0,0,"12/30/99 11:04:43",0,,,0
204578,"Чиковани Е.М.",,,382,,"09/18/18 00:00:00","Серволаб",,0,0,0,0,,,".",0,0,0,"12/30/99 11:20:19",0,,,0
204646,"Боженко О.И.",,,1960,"матеріал дослідження кров","09/18/18 00:00:00","Серволаб",,0,0,0,0,,,,0,1,0,"12/30/99 11:38:42",0,,,0
204689,"Яковенко В.О.",,,1966,,"09/18/18 00:00:00","Серволаб",,0,0,0,0,,,,0,0,0,"12/30/99 12:10:43",0,,,0
204691,"Яковенко В.О.",,,1967,,"09/18/18 00:00:00","Серволаб",,0,0,0,0,,,,0,0,0,"12/30/99 12:11:03",0,,,0
204781,"Самойленко А.В.",,,429,,"09/19/18 00:00:00","Серволаб",,0,0,0,0,,,,0,0,0,"12/30/99 10:44:53",0,,,0
204981,"Горбач Л.С.",,,1258,,"09/19/18 00:00:00","Серволаб",,0,0,0,0,,,,0,0,0,"12/30/99 11:36:45",0,,,0
205178,"Безух А.В.",,,1366,,"09/20/18 00:00:00","Серволаб",,0,0,0,0,,,,0,0,0,"12/30/99 10:13:31",0,,,0
205193,"Черненко М.П.",,,1358,"матеріал дослідження кров","09/20/18 00:00:00","Серволаб",,0,0,0,0,,,,0,1,0,"12/30/99 10:23:46",0,,,0
205206,"Толмачев А.В.",,,473,,"09/20/18 00:00:00","Серволаб",,0,0,0,0,,,,0,0,0,"12/30/99 10:29:59",0,,,0
205368,"Квашукова І.М.",,,1386,"матеріал дослідження кров","09/20/18 00:00:00","Серволаб",,0,0,0,0,,,,0,1,0,"12/30/99 11:10:23",0,,,0
205525,"Петренко Анатолій",,,1510,,"09/21/18 00:00:00","Серволаб",,0,0,0,0,,,,0,0,0,"12/30/99 10:16:48",0,,,0
205605,"Власюк Н.С.",,,104,,"09/21/18 00:00:00","Серволаб",,0,0,0,0,,,,0,0,0,"12/30/99 11:00:59",0,,,0
205676,"Підгорна Л.В.",,,1537,,"09/21/18 00:00:00","Серволаб",,0,0,0,0,,,,0,0,0,"12/30/99 11:21:42",0,,,0
205826,"Чекмишев Г.О.",,,130,,"09/21/18 00:00:00","Серволаб",,0,0,0,0,,,,0,0,0,"12/30/99 12:00:48",0,,,0
205828,"Чекмишев В.О.",,,131,,"09/21/18 00:00:00","Серволаб",,0,0,0,0,,,,0,0,0,"12/30/99 12:01:12",0,,,0
205932,"Виноградов М.И.",,,1678,,"09/24/18 00:00:00","Серволаб",,0,0,0,0,,,,0,0,0,"12/30/99 10:42:04",0,,,0
206025,"Еремченко Л.В.",,,162,,"09/24/18 00:00:00","Серволаб",,0,0,0,0,,,,0,0,0,"12/30/99 11:02:56",0,,,0
206084,"Тертична А.",,22,183,,"09/24/18 00:00:00","Серволаб",,0,0,0,0,,,"15 дмц",0,0,0,"12/30/99 11:19:15",0,,,0
206510,"Рудницька",,,264,,"09/25/18 00:00:00","Серволаб",,0,0,0,0,,,,0,0,0,"12/30/99 11:41:51",0,,,0
206675,"Распопова К.Е.",,,1947,"матеріал дослідження кров","09/26/18 00:00:00","Серволаб",,0,0,0,0,,,,0,1,0,"12/30/99 10:02:14",0,,,0
206767,"Гармаш В.М.",,,297,,"09/26/18 00:00:00","Серволаб",,0,0,0,0,,,,0,0,0,"12/30/99 10:42:26",0,,,0
206910,"Юрчук О.П.",,,333,,"09/26/18 00:00:00","Серволаб",,0,0,0,0,,,".",0,0,0,"12/30/99 11:49:03",0,,,0
207026,"Кружська Ган Наз",,,1045,,"09/27/18 00:00:00","Серволаб",,0,0,0,0,,,,0,0,0,"12/30/99 10:10:09",0,,,0
207108,"Савенок Л.В.",,,1053,,"09/27/18 00:00:00","Серволаб",,0,0,0,0,,,,0,0,0,"12/30/99 10:52:29",0,,,0
207110,"Ященко Н.Ф.",,,1066,,"09/27/18 00:00:00","Серволаб",,0,0,0,0,,,,0,0,0,"12/30/99 10:54:28",0,,,0
207112,"Лукін В.А.",,,354,,"09/27/18 00:00:00","Серволаб",,0,0,0,0,,,,0,0,0,"12/30/99 10:56:13",0,,,0
207123,"Міщук Я.П.",,,358,,"09/27/18 00:00:00","Серволаб",,0,0,0,0,,,,0,0,0,"12/30/99 11:00:53",0,,,0
207176,"Самко В.В.",,,343,,"09/27/18 00:00:00","Серволаб",,0,0,0,0,,,,0,0,0,"12/30/99 11:15:35",0,,,0
207178,"Самко Т.Г.",,,345,,"09/27/18 00:00:00","Серволаб",,0,0,0,0,,,,0,0,0,"12/30/99 11:16:17",0,,,0
207394,"Кулініч О.С.",,,43,,"09/28/18 00:00:00","Серволаб",,0,0,0,0,,,,0,0,0,"12/30/99 10:21:02",0,,,0
207455,"Савченко Е.И.",,,1224,,"09/28/18 00:00:00","Серволаб",,0,0,0,0,,,"22нед бер",0,0,0,"12/30/99 10:45:53",0,,,0
207459,"Аббасов А.І.",,,399,,"09/28/18 00:00:00","Серволаб",,0,0,0,0,,,,0,0,0,"12/30/99 10:46:52",0,,,0
207468,"Сафонова С.С.",,,403,,"09/28/18 00:00:00","Серволаб",,0,0,0,0,,,,0,0,0,"12/30/99 10:48:04",0,,,0
209128,"Ключко А.П.",,,675,,"09/28/18 00:00:00","Серволаб","вухо",0,0,0,0,,,".",0,0,0,"12/30/99 13:18:28",0,,,0
