1,380504401751,Кунда Марта Богданівна ,,01.01.2018
2,380634323326,Сторчева Ольга Сергеевна ,Виталий ,15.02.2018
3,380979061624,Тюндюрова Инна Владимировна ,Виталий ,15.02.2018
4,380672242411,Харченко Валентина Николаевна ,Виталий ,16.02.2018
5,380939281763,Миронец Анна Николаевна ,Виталий ,16.02.2018
6,380984604949,Смуток Ирина Петровна,Виталий ,16.02.2018
7,380676021567,Подлужная Ольга Васильевна ,Виталий ,19.02.2018
8,380979518675,Самчук Павел Александрович ,Виталий ,19.02.2018
9,380637661119,Борисова Татьяна Владимировна ,Паша ,21.02.2018
10,380672733371,Гетьман Наталья Васильевна ,Паша ,21.02.2018
11,380677200378,Аванесова Оксана Николаевна ,Виталий ,21.02.2018
12,380669414984,Загирова Виктория Александровна (Морозова),Виталий ,21.02.2018
13,380931228529,Задворнова Оксана Александровна,Паша ,22.02.2018
14,380989965110,Івашко Юлія Василівна,Виталий ,22.02.2018
15,380504145070,Каштелян Олег Аркадьевич,,23.02.2018
16,380675057728,Зинченко Елена Михайловна,Виталий ,27.02.2018
17,380506071113,Рукомеда Ольга Володимірівна,Виталий ,27.02.2018
18,380938442727,Заболотня Наталия Анатольевна ,Виталий ,28.02.2018
19,380681212425,Кубрак Руслан Евгеньевич,Виталий ,28.02.2018
20,380672612003,Пригодюк Валентина Валентиновна,Виталий ,28.02.2018
21,380679006632,Суворина Марина Михайловна,Виталий ,01.03.2018
22,380938437781,Науменко Маргарита Ивановна,Виталий ,01.03.2018
23,380503574374,Гайдамака Катерина Владимировна,Виталий ,02.03.2018
24,380977957896,Мельник Леонид Николаевич,Виталий ,02.03.2018
25,380981110333,Захарченко Оксана Сергеевна,Оля,02.03.2018
26,380683686861,Сотникова Людмила Сергеевна ,Оля,02.03.2018
27,380638850508,Бучацкая Екатерина Юрьевна,Оля,02.03.2018
28,380963165079,Антонюк Оксана Володимирівна,Катя,03.03.2018
29,380679387117,Бондаренко Ольга Геннадьевна,Оля,03.03.2018
30,380504135356,Кубарев Дмитрий Витальевич,Виталий ,05.03.2018
31,380954541322,Виноград Вячеслав Павлович,Виталий ,05.03.2018
32,380976966017,Петропавловская Евгения Олеговна ,Виталий ,05.03.2018
33,380677933867,Дічко Сергій Миколайович ,Паша,05.03.2018
34,380978390288,Роєнко Юрій Васильович,Оля,05.03.2018
35,380992766303,Бродская Анна Петровна ,Катя,05.03.2018
36,380664021533,Ципкун Андрей Аркадиевич ,Оля,05.03.2018
37,380660332811,Криштопа Михаил Васильевич,Оля,05.03.2018
38,380676563203,Кидалов Сергей Леонидович,Оля,06.03.2018
39,380679008076,Шупертяк Анна Николаевна,Оля,06.03.2018
40,380638774111,Гаряева Ирина Анатольевна,Катя,06.03.2018
41,380674773426,Черняк Егор Миколайович,,06.03.2018
42,380983085371,Кащук Олег Борисович,Оля,06.03.2018
43,380638372362,Шлотгауєр Александр Артурович,Оля,07.03.2018
44,380674068935,Романовская Любовь Георгиевна,Виталий,07.03.2018
45,380673188903,Василенко Лидия Владимировна,Оля,07.03.2018
46,380676743373,Мацишин Віктор Сергійович,Оля,07.03.2018
47,380637710454,Савлюк Людмила Валерьевна,Паша ,07.03.2018
48,380669102217,Нагорная Виктория Васильевна ,Оля,07.03.2018
49,380932612184,Лисенко Надія Русланівна ,Паша,07.03.2018
50,380953400201,Ткаченко Олеся Николаевна,Оля,07.03.2018
51,380931283117,Абраменко Алена Александровна,Виталий ,07.03.2018
52,380669532040,Туров Михайло Анатолійович,Паша,07.03.2018
53,380633542934,Щербакова Ольга Викторовна,Виталий ,12.03.2018
54,380679005049,Матвиенко Татьяна Георгиевна,Виталий ,12/03/2018
55,380979697752,Ралко Ольга Ивановна,Виталий ,12.03.2018
56,380673927597,Якубчик Наталія Миколаївна,,13/03/2018
57,380668482389,Нашеда Сергей Васильевич ,Виталий ,16.03.2018
58,380968304040,Мельник Богдан Васильович ,,16/03/2018
59,380503841817,Донская Валентина Дмитриевна ,Оля,16.03.2018
60,380675082939,Гук Светлана Аркадьевна,,16/03/2018
61,380958494478,Рабдеева  Катерина Сергеевна ,Виталий ,21.03.2018
62,380672477421,Измайлова Лидия Васильевна ,Виталий ,22.03.2018
63,380930569605,Ольховенко Ольга Валентиновна ,Виталий ,22.03.2018
64,380506186482,Горзов Антон Антонович,Виталий ,22.03.2018
65,380672731885,Ткаченко Вадим Владимирович ,Виталий ,23.03.2018
66,380677559458,Проскура Александр Георгиевич ,Виталий ,23.03.2018
67,380992027663,Ахремюк Руслан Александрович,Оля,23/03/2018
68,380977067576,Мельник Анатолий Михайлович,Оля,26/03/2018
69,380503345891,Казмирович Елена Игоревна,Паша ,26.03.2018
70,380973420223,Власова Галина Орестівна ,Оля,27/03/2018
71,380672327757,Білан Олена Анатоліївна,Оля,27/03/2018
72,380674413342,Малик Наталія Дмитрівна,Виталий ,27.03.2018
73,380979261969,Мельникова Альона Юріївна,Катя,28/03/2018
74,380975251524,Пшеничная Мария Ивановна,Катя , 
75,380939140632,Сосновский Виктор Иосипович,Катя,28.03.2018
76,380679780140,Заріцька Надія Дмитрівна,Оля,28/03/2018
77,380961118302,Романенко Наталья Андреевна ,Оля,28/03/2018
78,380990373108,Лолуа Тамара Зурабовна,Оля,28/03/2018
79,380958037691,Румянцев Леонид Игоревич,Оля,28/03/2018
80,380507374298,Шабанова Софія Юріївна,Оля,28/03/2018
81,380963161316,Челован Валентина Дмитриевна,Катя,28/03/2018
82,380500487939,Бирюкова Ирина Степановна,Оля,29/03/2018
83,380934192713,Романько Анна Викторовна,Виталий ,29.03.2018
84,380675842536,Вавило Людмила Владимировна,Катя ,29/03/2018
85,380934950605,Марусич Оксана Олеговна,Виталий ,29/03/2018
86,380933166876,Федотова Лариса Михайловна,Оля,29/03/2018
87,380505430696,Носенко Игорь Владимирович,Виталий ,29/03/2018
88,380997076375,Мединская Татьяна Сергеевна ,Оля,29/03/2018
89,380506976009,Абашина Татьяна Сергеевна ,Оля,29/03/2018
90,380672919288,Щербань Людмила Ярославівна,Виталий ,29.03.2018
91,380963218888,Зеленская  Юлия  Владимировна,Катя ,30/03/2018
92,380961445296,Казанжи  Анна  Ильинична,Катя ,30/03/2018
93,380672250549,Химич Анна Сергеевна,Катя ,30.03.2018
94,380989572156,Юрчик Оксана  Вікторівна,Катя ,30/03/2018
95,380679411182,Нерушак Сергей Анатольевич,Виталий,30/03/2018
96,380938890395,Семененко Наталья Викторовна,Виталий ,30/03/2018
97,380731727771,Чигир  Світлана  Василівна  ,Оля,30/03/2018
98,380679944313,Шишко  Виктория  Валерьевна,Катя,30.03.2018
99,380979568078,Артемчук Екатерина Владимировна,Виталий ,02/04/2018
100,380936131963,Тарасюк Елена Андреевна,Виталий ,02/04/2018
101,380675365682,Пирогова Елена Викторовна,Оля ,02/04/2018
102,380632273751,Колодрибская Анастасия Сергеевна,Виталий ,02/04/2018
103,380954191324,Котельникова Наталья Сергеевна,Виталий ,02/04/2018
104,380963377215,Нужна Татьяна Павловна,Паша,02.04.2018
105,380672312828,Семенюк Виктор Иванович,Паша,02.04.2018
106,380689496901,Березина Мария Глебовна,Паша,02/04/2018
107,380974847894,Уманец Константин Эдуардович,Паша,02.04.2018
108,380636346060,Стадник Вікторія  Георгіівна,Оля,03.04.2018
109,380675044531,Тетьянчук Елена Вячеславовна,Оля,03.04.2018
110,380679130640,Рубейкин Александ Петрович,Виталий,03.04.2018
111,380997962825,Карамаш Олена Иосиповна,Виталий ,03.04.2018
112,380968732939,Захарцева Ольга Ираклиевна,Виталий ,04.04.2018
113,380957508520,Горяинов Дмитрий Геннадьевич,Виталий ,04.04.2018
114,380506686498,Матеркова Наталия Владимировна,Виталий ,04.04.2018
115,380677915396,Криворук Мария Николаевна ,Виталий,04.04.2018
116,380637935647,Кахидзе Дудари Шамшейович,Виталий ,04.04.2018
117,380508270700,Скороход Андрей Валерьевич,Виталий ,04.04.2018
118,380503310916,Иосифов Анатолий Владимирович,Катя,05.04.2018
119,380934874851,Гончар Марианна Владимировна,Катя ,05.04.2018
120,380660027224,Ручко Юлия Валерьевна,Виталий ,06.04.2018
121,380667366307,Короленко Константин Владиславович,Виталий ,06.04.2018
122,380975340454,Демина  Наталія Вячеславовна,Виталий ,06.04.2018
123,380507754847,Копанайко Татьяна Евгеньевна,Паша,11.04.2018
124,380976539177,Стасюк Інна Миколаївна,Виталий ,11.04.2018
125,380672919343,Снімщиков  Родіон  Анатолійович,Виталий ,11.04.2018
126,380993078905,Ригайло Ірина Богданівна,Виталий ,11.04.2018
127,380504111490,Соловей Елена Анатольевна,Оля ,11.04.2018
128,380996376738,Єлова Ніна Віталіївна,Виталий ,11.04.2018
129,380508011551,Серьогіна Олена Петрівна,Катя,11.04.2018
130,380971996337,Гречко Валерій Олександрович,Виталий ,11.04.2018
131,380931933339,Соляр Алексей Ильич,Виталий ,11.04.2018
132,380634521905,Черепаха Ирина Юрьевна,Виталий ,11.04.2018
133,380930598783,Ребченко Надежда Юрьевна,Виталий ,11.04.2018
134,380997488130,Колосовский Назар Олегович,Оля,11.04.2018
135,380509186493,Стовбун  Валентина Владимировна,Виталий ,12.04.2018
136,380686879509,Лимар  Віра Петрівна,Оля,12.04.2018
137,380507211899,Швец Лилия Анатольевна ,Виталий ,16.04.2018
138,380995447050,Ян Елина Мелс ,Виталий ,16.04.2018
139,380982561265,Дехтяренко Наталия Петровна,Виталий ,16.04.2018
140,380953544950,Махно Татьяна Николаевна,,18.04.2018
141,380634457126,Шаповаленко Ярослав Олександрович ,Паша,18.04.2018
142,380503588351,Цыж Александр  Васильевич,Катя,18.04.2018
143,380673621367,Колинько Тетяна Андріївна,Виталий ,18.04.2018
144,380993546730,Бахтин Роман Николаевич,Виталий ,18.04.2018
145,380674658327,Агаркова Ірина Іванівна,Оля,18.04.2018
146,380913805999,Озерянський Назар Андрійович,Виталий ,18.04.2018
147,380675490055,Русанова Юлия Николаевна,Виталий ,18.04.2018
148,380979001094,Голеня  Инна Николаевна,Виталий ,18.04.2018
149,380503823457,Лозовицкая Елена Владиславовна,Катя,18.04.2018
150,380939626068,Луголооби Руслан Джонсович,Виталий ,19.04.2018
151,380502843750,Карпенко Александр Викторович,Паша,19.04.2018
152,380674625672,Есауленко Антон Николаевич,Виталий ,19.04.2018
153,380977044533,Полшкова Юлия Владимировна,Виталий ,23.04.2018
154,380630300370,Ясин Юнис Валид,Виталий ,23.04.2018
155,380509065238,Кіча Наталія Василівна ,Паша,23.04.2018
156,380931075356,Аксёнов Руслан Валерьевич,Паша,23.04.2018
157,380979085276,Савина Инна Анатольевна,Виталий ,23.04.2018
158,380631262609,Загоруйко Юрий Витальевич,Оля,23.04.2018
159,380951976929,Гоч Екатерина Григорьевна,Оля,23.04.2018
160,380679836636,Барабанчик Елена Владимировна,Виталий ,25.04.2018
161,380953309003,Мацибох Софья Владимировна,Виталий ,25.04.2018
162,380955823347,Холодова Татьяна  Анатольевна,Виталий ,25.04.2018
163,380673219165,Кравчук Едуард Юрійович,Паша,25.04.2018
164,380972835924,Сикорский Андрей Александрович,Виталий ,25.04.2018
165,380637420410,Осипова Татьяна Михайловна,Виталий ,26.04.2018
166,380986354747,Марачкович Ксения Юрьевна,Виталий ,26.04.2018
167,380977984801,Войнаровский Василь Романович,Виталий ,27.04.2018
168,380506841956,Петрук Татьяна Николаевна ,Виталий ,27.04.2018
169,380676563586,Кацитадзе Игорь Юрьевич ,Оля,02.05.2018
170,380638155925,Ракитина Оксана Васильевна,Оля,02.05.2018
171,380639856986,Гайдай Олександр Миколайович,Оля,02.05.2018
172,380977188513,Саркисян Алеся Витальевна,Оля,02.05.2018
173,380636348389,Раилко Инна Александровна,Оля,02.05.2018
174,380939953477,Соломко Юлия Александровна,Оля,02.05.2018
175,380964512513,Мельниченко Светлана Георгиевна,Катя,04.05.2018
176,380978588077,Копычко Юлия Александровна,Оля,04.05.2018
177,380503558325,Лукьяненко Ольга Валентиновна,Оля,04.05.2018
178,380969669814,Голубова Елена Игоревна,Оля,04.05.2018
179,380667341404,Власко  Наталья  Алексеевна,Оля,04.05.2018
180,380634200529,Грибовская Мария Александровна,Оля,04.05.2018
181,380687217108,Копычко Денис Николаевич,Оля,04.05.2018
182,380639895581,Несин Алла Андреевна,Оля,05.05.2018
183,380935492211,Ахмат  Башат Амин,Виталий ,05.05.2018
184,380962931311,Лакиза Ліна Вадимівна,Оля,05.05.2018
185,380993276536,Хандога Игорь Васильевич,Виталий ,05.05.2018
186,380666159323,Рафальський Станіслав Олексійович,Виталий ,05.05.2018
187,380677929485,Малаевич  Антонина  Васильевна,Виталий ,05.05.2018
188,380672204776,Рожков Максим Петрович,,07.05.2018
189,380677739357,Стрельникова Анна Александровна,Оля,07.05.2018
190,380663843392,Мазур Анастасия Геннадьевна,Оля,07.05.2018
191,380979383518,Міщенко Інна Миколаівна,Оля,07.05.2018
192,380971787447,Зинченко Татья Александровна,Оля,07.05.2018
193,380988242588,Потоцкая Татьяна Николаевна ,Оля,07.05.2018
194,380970764096,Кириченко Марина Игоревна,Оля,07.05.2018
195,380678828868,Шекель Ольга Александровна,Оля,07.05.2018
196,380672885354,Журба Анна Юрьевна ,Оля,07.05.2018
197,380504326324,Онищук Ольга Александровна,Оля,07.05.2018
198,380979524849,Слобода  Галина Васильевна,Катя,07.05.2018
199,380978485766,Хлюс Олександр Петрович ,Оля,07.05.2018
200,380931379198,Чуканова  Анна Василівна,Оля,08.05.2018
201,380936142093,Чуканов Игорь Валерьевич,Оля,08.05.2018
202,380976941659,Фрунцевич Наталия Константиновна ,Оля,08.05.2018
203,380673886243,Пирог Ольга Михайлівна,Оля,10.05.2018
204,380979424473,Рабош Марина Викторовна,Оля,10.05.2018
205,380672329715,Симагина Татьяна Владимировна,Катя,10.05.2018
206,380508708477,Солдатенко  Роман Сергеевич,Оля,10.05.2018
207,380636292950,Солдатенко Марина Викторовна,Оля,10.05.2018
208,380939024994,Куриленко Вікторія  Вікторівна,Оля,10.05.2018
209,380976618159,Слободян Ирина Владимировна,Катя,10.05.2018
210,380990771846,Мартыненко Дмитрий Олегович,Катя,10.05.2018
211,380666040720,Косинец Максим Андреевич,Оля ,10.05.2018
212,380999142097,Еремягина Ирина Александровна,Оля,10.05.2018
213,380503121245,Бєляєва Тетьяна Володимирівна,Катя,10.05.2018
214,380679373489,Ващилко Алла Сергеевна,Катя,10.05.2018
215,380688613278,Галич Ярослав Васильович,Оля,11.05.2018
216,380932135522,Сташенко Павел Петрович,Виталий ,11.05.2018
217,380661118869,Юрченко  Юлія  Михайловна,,11.05.2018
218,380635979848,Мухоид Светлана Сергеевна,Паша,11.05.2018
219,380952804245,Слободяник  Ольга  Володимирівна,Оля,11.05.2018
220,380990003288,Масалітіна  Олена  Валеріївна,,11.05.2018
221,380668319548,Чернецька Богдана  Григорівна,Катя,11.05.2018
222,380937150053,Йовенко  Алла Владимировна,Паша,11.05.2018
223,380633444819,Кривобоков  Вячеслав  Викторович,,14.05.2018
224,380939813366,Борн Евгений  Евгениевич,Паша,14.05.2018
225,380977766331,Адамец Александр Александрович,,14.05.2018
226,380938566191,Величко Вячеслав Николаевич,Виталий ,14.05.2018
227,380500303030,Просветина Марина Юрьевна,,14.05.2018
228,380983758641,Котляр Екатерина Юрьевна,,14.05.2018
229,380634886406,Петренко Анастасия Вадимовна,,14.05.2018
230,380951903037,Мельник  Светлана Владимировна,Катя,14.05.2018
231,380985558156,Орлов Владимир  Александрович,Катя,14.05.2018
232,380672536392,Киричек Валентина Павловна,Оля,14.05.2018
233,380665686010,Кисимес Ксения Андреевна,Виталий ,14.05.2018
234,380992229345,Зацаринний Роман Андрійович ,Катя,14.05.2018
235,380966320400,Бабешина Людмила Анатоліївна,Виталий ,15.05.2018
236,380639983849,Крамаренко Станислав Сергеевич,Виталий ,15.05.2018
237,380674664524,Цветкова Наталия Михайловна,Катя,16.05.2018
238,380504336487,Завьялова Мария Дмитриевна,Паша,16.05.2018
239,380954297601,Гаврилюк Галина Александровна,Паша,16.05.2018
240,380961272315,Смолина Людмила  Александровна,Паша,16.05.2018
241,380937276280,Саньоцька Ірина Михайлівна,Паша,16.05.2018
242,380503516516,Моркотун Василий Николаевич,Паша,16.05.2018
243,380501650708,Обельницька Тетяна Романівна,Паша,16.05.2018
244,380977405355,Іщенко Ніна Юліївна,Паша,16.05.2018
245,380680525022,Можарівська Ольга Михайлівна,Оля,17.05.2018
246,380676493675,Закордонец Виталий Александрович,Паша,17.05.2018
247,380671356383,Шаповалов Сергій Анатоліцович,Оля,17.05.2018
248,380733255384,Медуница Валентина Николаевна,Паша,17.05.2018
249,380673756071,Голубенко Максим Олегович,Оля,17.05.2018
250,380930053670,Криклюк Александр Петрович,Оля,17.05.2018
251,380679540708,Ермакова Анастасия Валериевна,Оля,17.05.2018
252,380677861059,Бобыляк Олег Романович ,Виталий ,18.05.2018
253,380962373177,Кудина Юлия Викторовна,Катя,18.05.2018
254,380675023752,Пшегорницкий  Игорь Васильевич,Виталий ,18.05.2018
255,380936290785,Балюк Галина Алексеевна,Катя,18.05.2018
256,380501463040,Гиатели Леся Николаевна,Виталий ,18.05.2018
257,380975248792,Давыдов  Александр  Леонидович,Виталий ,18.05.2018
258,380936106000,Скрицкий  Дмитрий  Владимировичь,Оля,21.05.2018
259,380972397699,Мохонько Оксана  Георгіївна,Виталий ,22.05.2018
260,380662212702,Михайловский Владимир Юрьевич ,Виталий ,22.05.2018
261,380962399817,Мілянчук Олександра Михайлівна,Виталий ,22.05.2018
262,380976912479,Вилкова Анна Александровна,Виталий ,22.05.2018
263,380674452402,Круглова Анна Алексеевна,Оля,22.05.2018
264,380689248272,Сунько Руслан Анатольевич ,Паша,23.05.2018
265,380505085648,Молодченко Валерий Николаевич,Паша,23.05.2018
266,380731342899,Нещерет Лариса Миколаївна,Оля,23.05.2018
267,380966429899,Шостак Юлия Владимировна,Паша,23.05.2018
268,380503663954,Мялов Александр Васильевич,Паша,23.05.2018
269,380938819926,Санько Алёна Валериевна,Оля,23.05.2018
270,380972522031,Радюк  Людмила  Валерьевна,Оля,23.05.2018
271,380503309927,Приходько  Анатолий  Анатольевич,Оля,23.05.2018
272,380676129755,Павленко Таисия  Ивановна,Паша,23.05.2018
273,380660483756,Подройко Светлана Владимировна,Оля,23.05.2018
274,380661097579,Мартынюк Оксана Даниловна,Оля,23.05.2018
275,380677680120,Сазонец Тамара Алексеевна,Катя ,24.05.2018
276,380502047073,Шупик Ольга Сергеевна,Катя ,24.05.2018
277,380962997994,Синяк Вита Валентиновна,Виталий,24.05.2018
278,380990258099,Ставицкий Евгений Анатольевич,Виталий,24.05.2018
279,380973653050,Щербина Александр Яковлевич,Виталий,24.05.2018
280,380675034848,Полторакин Василий Степанович,Виталий,24.05.2018
281,380983810698,Миргаязова Татьяна Александровна,Виталий,24.05.2018
282,380976743360,Мазина Ольга Николаевна,Катя ,24.05.2018
283,380662733498,Гриднева Лидия Андреевна,Катя ,24.05.2018
284,380984753308,Шипунова Любовь Степановна ,Катя ,24.05.2018
285,380672740561,Власюк  Тамила  Александровна,Катя ,24.05.2018
286,380731217567,Миринич  Марина  Сергеевна,Виталий ,24.05.2018
287,380671901697,Волохотюк Мария Владимировна,Виталий ,25.05.2018
288,380937745325,Кошевой Артем Викторович,Виталий ,25.05.2018
289,380932136429,Олещенко Вита Ивановна,Виталий,25.05.2018
290,380677764616,Артеменко Наталья Михайловна,Виталий ,25.05.2018
291,380507115315,Лахтурина Катерина Евгениевна,Оля,29.05.2018
292,380677027729,Скрипка  Анжела  Ивановна,Оля,29.05.2018
293,380503828340,Нор Юлія Сергіївна,Оля,29.05.2018
294,380667545728,Пліва Лариса  Іванівна,Оля,29.05.2018
295,380963935246,Изварина Алла Андреевна,Оля,29.05.2018
296,380732027416,Авдошина Марина  Николаевна,Виталий ,29.05.2018
297,380987884040,Пономаренко  Валерій  Андрійович,Оля,29.05.2018
298,380677998587,Малько Татьяна Михайловна,Виталий ,29.05.2018
299,380679857761,Мукшименко Вита Анатолиевна,Виталий ,29.05.2018
300,380504722630,Перетятько Вероника Викторовна,Виталий ,29.05.2018
301,380667451813,Слобадяник Галина  Николаевна,Виталий ,29.05.2018
302,380677240985,Волох Александр Дмитриевич,Оля,29.05.2018
303,380501096063,Маніковська Лада Михайлівна,Оля,29.05.2018
304,380993293539,Маяковская Юлия Ивановна ,Виталий ,29.05.2018
305,380964616934,Гладкевич Дмитро  Анатольевич,Виталий ,29.05.2018
306,380932201714,Ленцова Ксения Андреевна,Виталий ,29.05.2018
307,380979633717,Процюк Олександр Витальевич ,Оля,29.05.2018
308,380978349172,Голюк Инна Михайловна,Виталий ,29.05.2018
309,380977447940,Лазарева Юлия Анатолиевна,Оля,29.05.2018
310,380977042310,Полищук  Нина  Михайловна,Оля,29.05.2018
311,380978518913,Яцишина Мирослава Анатолиевна,Оля,29.05.2018
312,380667936274,Яценко Наталья Викторовна,Виталий ,29.05.2018
313,380637527595,Шкарупа Богдан Николаевич,Виталий ,29.05.2018
314,380954823598,Пелешенко Ирина Владимировна,Виталий ,30.05.2018
315,380987907951,Русначенко  Ольга  Володимирівна,Катя,31.05.2018
316,380677382567,Сынышин  Юрий Иванович,Виталий,31.05.2018
317,380674080119,Константинов Константин Константинович,Виталий,31.05.2018
318,380965591806,Качмар Виктория Николаевна,Виталий,31.05.2018
319,380997928606,Романчук Анастасія Анатоліївна,Виталий ,31.05.2018
320,380674982559,Невгад Алла Петрівна,Паша,01.06.2018
321,380506083215,Рудомёткин Александр Александрович,Виталий,02.06.2018
322,380955102056,Бронипольская Алена Игоревна ,Виталий,02.06.2018
323,380677848729,Татарчук Владимир Иванович,Виталий,04.06.2018
324,380639369883,Швец Ирина Васильевна ,Катя,04.06.2018
325,380978812903,Павлий Валентин Викторович,Виталий,04.06.2018
326,380985756568,Кнапик ТАТЬЯНА Васильевна ,Виталий,04.06.2018
327,380502349263,Ажипа Елена Андреевна,Виталий,04.06.2018
328,380500765775,Мельник Ирина Петровна,Оля,05.06.2018
329,380673063094,Ясинская Валентина Ивановна,Оля,05.06.2018
330,380970227036,Плыс Татьяна  Анатольевна,Оля,05.06.2018
331,380502156525,Семенченко Ольга Петровна,Оля,05.06.2018
332,380933784043,Пискун Светлана  Анатольевна,Оля,05.06.2018
333,380932233640,Мельникова Татьяна Васильевна,Оля,05.06.2018
334,380935085192,Демен Александр Иванович,Виталий,06.06.2018
335,380503123399,Смехульская Раиса Ивановна ,Оля,06.06.2018
336,380689770827,Наумова Наталья Владимировна,Оля,06.06.2018
337,380969481667,Васянович Оксана  Васильевна,Виталий ,06.06.2018
338,380679985454,Беженар  Валентина  Георгиевна,Оля,06.06.2018
339,380982614934,Сердюков Виталий Витальевич,Виталий ,06.06.2018
340,380966807245,Рапп Людмила Анатольевна,Виталий ,06.06.2018
341,380677678784,Халдис Оксана Олеговна,Катя,06.06.2018
342,380979422493,Формакидова Анастасия Анатолиевна,,06.06.2018
343,380633153452,Лісовенко Олена Владиславівна,Виталий ,07.06.2018
344,380504117297,Омельченко  Нина  Андреевна,Виталий ,07.06.2018
345,380663280126,Клименко Олексій Миколайович,Оля,07.06.2018
346,380506593035,Бутроменко Елена Николаевна,Виталий ,07.06.2018
347,380660242108,Бегаль  Вера Адамовна,Оля,07.06.2018
348,380963303363,Лясковская  Евгения  Григорьевна,Виталий ,07.06.2018
349,380672984904,Мартынюк Лариса Владимировна,Оля,07.06.2018
350,380936933299,Суровцева  Ольга  Сергеевна,Оля,07.06.2018
351,380634905557,Лисовская Ольга Васильевна,Виталий ,07.06.2018
352,380951264755,Шевченко Татьяна  Ивановна,Оля,08.06.2018
353,380932469699,Бойко Ольга Вікторовна ,Оля,08.06.2018
354,380952505215,Дера Микола Сергійович,Виталий ,09.06.2018
355,380732268644,Кинах Вадим Валериевич ,Виталий ,09.06.2018
356,380984591503,Свиридовська Ирина Павловна,Паша,11.06.2018
357,380678941113,Новоселькая Нелли Вячеславовна,,11.06.2018
358,380977717118,Головацька Наталія  Володимірівна,Паша,11.06.2018
359,380672428078,Мартынюк Александр Леонидович,,11.06.2018
360,380936383732,Михайловська Анастасія Олегівна,Оля ,11.06.2018
361,380679198297,Кондрашина Елена Васильевна,Паша,11.06.2018
362,380672811453,Ковальская Татьяна Владимировна,Паша,11.06.2018
363,380678891124,Гаврищук Богдан Григорьевич,,11.06.2018
364,380677485711,Корсак Ирина Сергеевна,Паша,12.06.2018
365,380679695775,Андрущенко Ирина  Викторовна,Паша,12.06.2018
366,380501757843,Глазовская Ирина Ивановна,Паша,12.06.2018
367,380968236240,Гончарук Владимир Анатольевич,Виталий,12.06.2018
368,380989319760,Король Юлия Сергеевна,Виталий ,13.06.2018
369,380674909122,Мартыненко Татьяна Васильевна,Виталий ,13.06.2018
370,380934171019,Крутик Татьяна Николаевна,Виталий ,13.06.2018
371,380509636102,Пантази Сергей Викторович,Виталий ,13.06.2018
372,380663313622,Митрога Інна Валерієвна,Виталий,13.06.2018
373,380666607212,Чікіна Вікторія Олексіївна,Виталий,13.06.2018
374,380506991403,Павленко Леся Николаевна,Виталий,13.06.2018
375,380931173734,Бекало Филипп Александрович,Виталий,13.06.2018
376,380682402087,Гаврилюк Сергей Дмитриевич,Виталий,13.06.2018
377,380661402276,Рачинская Алла Ивановна,Виталий,13.06.2018
378,380964588789,Давыдок  Наталия Борисовна,Виталий,14.06.2018
379,380677663412,Козаченко Андрей Юрьевич,Виталий,14.06.2018
380,380507807094,Коновкин Максим Анатолиевич,Виталий,14.06.2018
381,380508146605,Богуш  Марина  Леонидовна,Виталий,14.06.2018
382,380506930093,Семеха Людмила Василівна,Виталий,14.06.2018
383,380662017017,Кравцова Галина Василівна,Виталий,14.06.2018
384,380662687925,Шибика Анна Васильевна,Виталий,14.06.2018
385,380631010853,Ющенко В'ячеслав Петрович,,18.06.2018
386,380635864939,Сенатова Алина Олеговна,Виталий,18.06.2018
387,380974340034,Архангельская  Ольга  Станиславовна,Виталий ,18.06.2018
388,380662217679,Коробенко Андрій Юрійович,Паша,18.06.2018
389,380677783041,Мороз Неля Николаевна,Оля ,19.06.2018
390,380982239030,Гайдукевич Оксана Петрівна,Оля ,19.06.2018
391,380509526770,Жила Наталія Юріївна,Оля ,19.06.2018
392,380963860647,Кисилева Ольга Александровна,Виталий ,19.06.2018
393,380674430785,Маркова Инна Анатольевна,Виталий ,19.06.2018
394,380500707335,Постол Ирина Ивановна,Виталий ,19.06.2018
395,380969874758,Слотило Лілія Богданівна,Виталий ,19.06.2018
396,380972912183,Туровська Ванда Францівна,Оля ,19.06.2018
397,380965234530,Гейко Наталья Александровна,Оля ,19.06.2018
398,380677737891,Вільчинська Леся  Валеріївна,Оля ,19.06.2018
399,380631274070,Гриневецький  Вілен Андрійович,Виталий ,20.06.2018
400,380958343853,Денисенко Олена Сергеевна,Виталий ,20.06.2018
401,380984781215,Кидик Людмила Євгеніївна,Оля,20.06.2018
402,380995690695,Бобровник Світлана Василівна,Виталий ,20.06.2018
403,380686041030,Витковская Мария Петровна,Оля ,20.06.2018
404,380505461704,Кияшко Вера Миколаївна,Виталий ,20.06.2018
405,380671747382,Иваныкина Светлана Александровна,Виталий ,20.06.2018
406,380977505480,Ктефан Абдель Карімович,Виталий ,21.06.2018
407,380974835571,Улиткина Ольга Григорькюевна,Виталий ,21.06.2018
408,380976583174,Радчук  Алена  Ивановна,Катя,21.06.2018
409,380664944403,Жабенко  Наталья  Иосифовна,Катя,21.06.2018
410,380990048151,Мазур Виталий Александрович,Виталий ,21.06.2018
411,380730457075,Мархай Геннадий Анатольевич,Виталий ,21.06.2018
412,380687660653,Пащенко Ирина Феликсовна,Катя,21.06.2018
413,380677674891,Даниленко Ольга Володимирівна,Виталий ,22.06.2018
414,380993848605,Обелец Максим Андреевич,Виталий ,23.06.2018
415,380505240916,Кадук  Євген Григорович,Катя,23.06.2018
416,380679895676,Ямчицкая Юлия Алексеевна,Виталий ,23.06.2018
417,380962027852,Григорьева Ольга Петровна,Виталий ,23.06.2018
418,380932575360,Кулик Алла Николаевна,Виталий ,23.06.2018
419,380671803494,Венгловская Надежда Александровна,Виталий ,23.06.2018
420,380930373830,Аль-Намри Елена Алексеевна,Виталий ,23.06.2018
421,380666063980,Кандоба Андрій Леонідович,Виталий ,23.06.2018
422,380936348710,Кирлиця Ірина Павлівна,Виталий ,25.06.2018
423,380502181896,Линник Наталья Витальевна,Виталий ,25.06.2018
424,380975037671,Ткачук Алла  Ивановна,Виталий ,25.06.2018
425,380677355688,Скопець Катерина Михайлівна,Виталий ,25.06.2018
426,380956504500,Егорова Дарья Евгеньевна ,Виталий ,25.06.2018
427,380662745851,Высоцкая Лариса Михайловна,Виталий ,25.06.2018
428,380953088436,Ложкина Ирина Сергеевна,Виталий ,26.06.2018
429,380679495555,Житна Наталья  Павловна,Виталий ,26.06.2018
430,380979242719,Юрчук Андрей Константинович,Виталий ,26.06.2018
431,380637385363,Наумов Михайло Олексійович,Виталий ,26.06.2018
432,380505581422,Форис Светлана  Анатольевна,Виталий ,26.06.2018
433,380677607474,Красюк Сергей Петрович,Виталий ,27.06.2018
434,380981040149,Попова Ольга Михайловна,Виталий ,27.06.2018
435,380966790289,Бруско Татьяна Валериевна,Виталий ,27.06.2018
436,380937646108,Ибрагим Мирослава Вячеславовна,,02.07.2018
437,380995590998,Яковенко Лариса Володимирівна,Виталий ,02.07.2018
438,380675823512,Мартынюк Андрей Анатольевич,Оля,02.07.2018
439,380676860740,Петльований Григорiй Миколайович,Катя,02.07.2018
440,380677586730,Катурга Iрина Василiвна,Катя,02.07.2018
441,380963927242,Василенко Галина Николаевна,Виталий ,02.07.2018
442,380673929270,Козубова  Людмила  Iванiвна,Виталий ,02.07.2018
443,380673886816,Тхоржевська  Марина Степанівна,Оля,02.07.2018
444,380676862271,Кисилев Николай  Константинович,Виталий ,03.07.2018
445,380677475988,Вишнякова Надежда Алексеевна ,Виталий ,03.07.2018
446,380931851664,Стоянова Ирина Кириловна,,03.07.2018
447,380991603038,Глушенко Оксана Анатольевна,,03.07.2018
448,380503558882,Мацюк Станислав Владимирович ,,04.07.2018
449,380500219136,Воловяк Марина  Петровна,,04.07.2018
450,380674438014,Воронова Марина Анатольевна,,04.07.2018
451,380967273757,Кравчук Оксана Миколаївна,,05.07.2018
452,380507161874,Оводюк Марія Олександрівна,Виталий ,06.07.2018
453,380631589966,Кучеревская  Элина Анатольевна,Оля,06.07.2018
454,380672805790,Борисенко Леся Борисівна,Катя,11.07.2018
455,380679527006,Радіонова Наталія Миколаївна,Виталий ,11.07.2018
456,380930404366,Татарчук Юрий Викторович,Оля,12.07.2018
457,380633021742,Процюк Віра Андріївна,Оля,12.07.2018
458,380987910797,Тишко Олександра Віталіївна,Виталий ,13.07.2018
459,380983358650,Цюцюра Ярослав  Петрович,Виталий ,13.07.2018
460,380964619950,Паламарчук Алла Евгениевна,Виталий ,13.07.2018
461,380683305854,Дмитрук Ірина Вікторівна ,Виталий ,13.07.2018
462,380962165219,Гарбулинский Игорь  Павлович,Оля,18.07.2018
463,380974763235,Тептюк Елизавета Валерьевна,Оля,18.07.2018
464,380969219623,Торопова Ирина Александровна,Оля,18.07.2018
465,380639779178,Мазур Павло Вадимович,Оля,18.07.2018
466,380958453546,Облакевич Тамара Петровна,Оля,19.07.2018
467,380975559006,Джигун Ігор Олександрович,Оля,19.07.2018
468,380503122532,Рубець Людмила Анатольевна,Оля,19.07.2018
469,380668879247,Степанова Елена Олеговна,Оля ,23.07.2018
470,380971090651,Кривошей Татьяна Витальевна,Оля ,23.07.2018
471,380990330723,Ковальчук Тетяна  Сергіівна,Оля ,23.07.2018
472,380672338042,Слупская Ярослава Юлиевна,Оля ,23.07.2018
473,380933096966,Откидач Сергей Александрович,Оля,23.07.2018
474,380986243430,Галич Лариса Андреевна,Оля ,23.07.2018
475,380501304134,Костенко Ольга Леонидовна,Оля,23.07.2018
476,380960171412,Попенко Ольга Валерьевна,Оля,24.07.2018
477,380963650402,Балашова Юлия Николаевна,Оля,24.07.2018
478,380937275567,Бебешко Инна Ивановна,Оля,25.07.2018
479,380937236736,Тимченко Ніна Семенівна,Катя ,25.07.2018
480,380505906463,Осадчук Тетяна Олексіівна,Катя ,25.07.2018
481,380668198680,Деревянко Валентина Григорьева,Виталий ,25.07.2018
482,380679440302,Блоха Оксана Петровна,Виталий ,25.07.2018
483,380677505481,Стасюк Дмитро Олексійович,Оля ,25.07.2018
484,380939272140,Преварська Наталья Николаевна,Виталий ,25.07.2018
485,380930643404,Малинка Роман Євгенійович,Катя,25.07.2018
486,380977753430,Опанасенко Наталья Борисовна,Оля,25.07.2018
487,380673941891,Кравченко  Наталья Михайловна,Катя ,25.07.2018
488,380637935342,Богайчук Алёна Евгениевна,Катя ,26.07.2018
489,380679913262,Топчій Віталій Юрійович,Оля,26.07.2018
490,380935012441,Бучок Софія Ігорівна,Катя ,26.07.2018
491,380933698000,Тонгич Светлана Николаевна,Катя ,26.07.2018
492,380671502914,Мельниченко Елена Ивановна,Катя ,26.07.2018
493,380678318273,Коваль  Анна  Анатольевна,Оля,26.07.2018
494,380955197349,Мосюндзь Ярослава Олександрівна,Катя ,26.07.2018
495,380975688687,Сака Павел Вениаминович,Катя ,26.07.2018
496,380664649812,Рафальская Надежда Николаевна,Катя ,27.07.2018
497,380935573102,Валестани  Виктория Владимировна,Оля ,27.07.2018
498,380505568434,Дима Наталья Григорьевна,Оля ,27.07.2018
499,380996836326,Максименко Алена Михайловна,Оля ,27.07.2018
500,380504955177,Богопольская Юлия Владимировна,Оля ,27.07.2018
501,380972224599,Шахбазян Наира  Вардкесивна,Виталий,30.07.2018
502,380674081259,Мюнталь  Нина Александровна,Катя ,30.07.2018
503,380961927357,Йонeць Наталья Юриeвна,Виталий ,30.07.2018
504,380982144175,Гуменюк Елена Владимировна,Виталий ,30.07.2018
505,380964363574,Сологуб Ольга Григорьевна,Катя ,30.07.2018
506,380663428284,Пашкевич Елена Владимировна ,Виталий ,31.07.2018
507,380960127400,Чекурова Алла Андреевна,Катя ,31.07.2018
508,380979559922,Иркин Олег Игоревич,Катя,31.07.2018
509,380688668844,Лутай Ярослав Михайлович,Катя,31.07.2018
510,380969737667,Степура Антон Александрович ,Катя,31.07.2018
511,380677886684,Забашта Людмила  Африкановна,Виталий ,31.07.2018
512,380730737358,Гончар Галина Владимировна ,Оля,01.08.2018
513,380503584566,Трубина Светлана Юрьевна,Оля ,01.08.2018
514,380630543921,Музичук Богдан Іванович,Оля,01.08.2018
515,380931164000,Малимоненко Марианна Владимировна,Оля ,01.08.2018
516,380971777013,Москалюк Татьяна Евтихиевна,Оля,01.08.2018
517,380973433888,Коннова Алла Александровна,Оля,01.08.2018
518,380674645869,Голикова Марина Владимировна,Катя ,02.08.2018
519,380979100444,Масальская Марина Юрьевна,Оля,02.08.2018
520,380631541950,Левченко Наталья Петровна,Оля,02.08.2018
521,380639155131,Сех Оксана Віталіївна,Виталий ,03.08.2018
522,380507701577,Лебедева Катерина Олеговна,Виталий ,03.08.2018
523,380933603130,Юрчук Елена Игоривна,Виталий ,03.08.2018
524,380506569804,Сивоконь Анна Витальевна,Катя ,03.08.2018
525,380633482548,Параскевов Роман Авраамович,Катя ,06.08.2018
526,380635935581,Басенко Илона Александровна,Катя ,06.08.2018
527,380674677126,Кузьменко Виктор Владимирович,Катя ,06.08.2018
528,380501837737,Зуевская Нина Петровна,Виталий ,06.08.2018
529,380974141212,Сусол Марина Тариеловна,Оля,07.08.2018
530,380967898879,Тригуба Елена Васильевна,Оля ,08.08.2018
531,380679479660,Чернопиская  Зиновия  Богдановна,Катя ,08.08.2018
532,380977402755,Крива Анастасіч Юріївна,Виталий ,08.08.2018
533,380931668881,Костенко Ирина Амасовна,Оля,08.08.2018
534,380671626302,Рахматуллин Динар Динарович,Оля,09.08.2018
535,380677549141,Підлубний Владислав Петрович,Оля,09.08.2018
536,380664045680,Кущ Вера Николаевна,Оля ,09.08.2018
537,380993854712,Остапенко Оксана Сергеевна,Оля ,09.08.2018
538,380507424364,Гоноровская Инна Михайловна,Виталий ,09.08.2018
539,380977521739,Чевжик Катерина Олександрівна,Виталий ,10.08.2018
540,380964895042,Губар Галина Ярославівна,Оля ,10.08.2018
541,380637889628,Озимай Елена Витальевна,Оля,10.08.2018
542,380953747108,Опанасенко Алина Владимировна,Виталий,10.08.2018
543,380505632279,Кузнецова Ольга Владимировна,Оля ,10.08.2018
544,380932002087,Голюк Мария Леонидовна,Оля,10.08.2018
545,380990921840,Бойко Валерія Олегівна,Виталий ,10.08.2018
546,380939711951,Мартыненко Олег Глебович,Оля,13.08.2018
547,380679077603,Верещака Андрей  Владимирович,Катя,13.08.2018
548,380937631383,Максименко Артем Петрович,Виталий ,13.08.2018
549,380679354851,Лимонова Юлія Семенівна,Катя,14.08.2018
550,380675066436,Добрянская Галина Филлиповна,Катя,14.08.2018
551,380966450827,Ратушняк Надежда Александровна,Оля,14.08.2018
552,380508897838,Джур Юлия Михайловна,Виталий,14.08.2018
553,380979650134,Остаповская Дарина Викторовна,Оля,14.08.2018
554,380677011292,Майборода Ігор Ігорович,Оля,14.08.2018
555,380981154040,Ненашев Олександр Станіславович,Виталий,14.08.2018
556,380666221439,Кернесюк Алла Николаевна,Катя,14.08.2018
557,380972550637,Лисенко Тетяна Михайлівна,Катя,14.08.2018
558,380932564016,Лотиш Наталия Анатольевна,Оля,14.08.2018
559,380672674964,Борсук Валерий Михайлович,Катя,14.08.2018
560,380672097466,Деркач Татьяна Ивановна,Оля,14.08.2018
561,380977285449,Шугалия Богдан Васильевич,Виталий,14.08.2018
562,380956120727,Волкова Людмила Людвиговна,Катя,14.08.2018
563,380968476027,Пристайко Мария Олеговна,Оля,15.08.2018
564,380501583405,Стельмах Оксана Миколаївна,Катя,15.08.2018
565,380955567624,Федорко Валерія Юріївна,Катя,15.08.2018
566,380671607132,Ковальова Вікторія Валеріївна,Катя,15.08.2018
567,380630786261,Галайдюк Наталія Вікторівна,Катя,15.08.2018
568,380677580542,Омельчук Вікторія Анатоліївна,Катя,15.08.2018
569,380674055034,Подлесоцький Олександр Миколайович,Оля,15.08.2018
570,380672557372,Косташ Жанна Григоріївна,Оля ,15.08.2018
571,380956882473,Боднар Ольга Володимирівна,Оля,15.08.2018
572,380664645494,Бутник Ростислав Олександрович,Катя,15.08.2018
573,380502006075,Тоцкая Лариса Васильевна,Катя,15.08.2018
574,380508073606,Легкодух Андрій Васильович,Оля,15.08.2018
575,380989598288,Оспанов Серик Алиевич,Катя,15.08.2018
576,380679851400,Карабан Марина Анатоліївна,Оля ,15.08.2018
577,380677814490,Затушевский Олександр Володимирович,Оля,15.08.2018
578,380507745331,Матвієнко Катерина Володимирівна,Катя,15.08.2018
579,380986714244,Гонтар Юлія Валеріївна,Катя,15.08.2018
580,380967586834,Фесенко Юлія Олексіївна,Катя,15.08.2018
581,380679296386,Федоренко Наталія Іванівна,Катя,15.08.2018
582,380936784572,Наливайко Ольга Сергіївна,Оля,16.08.2018
583,380631253969,Лелюк Ксенія Олександрівна,Катя,16.08.2018
584,380506045271,Курбатов Ярослав Валерійович,Оля,16.08.2018
585,380959204780,Ткаченко Ольга Сергіївна,Катя,16.08.2018
586,380951610775,Саєнко Яна Андріївна,Катя,16.08.2018
587,380934867799,Охотников Евгений Евгениевич,Оля,16.08.2018
588,380931828614,Охотникова Елизавета Евгеньевна,Паша,16.08.2018
589,380506351886,Павлишина Татьяна Михайловна,Виталий,16.08.2018
590,380732596920,Кривенко Наталія Миколаївна,Виталий,16.08.2018
591,380678520760,Кравцова Ірина Олександрівна,Катя,17.08.2018
592,380965361636,Бдоян Лариса Вараздатовна,Катя,17.08.2018
593,380509252730,Рижак Зінаіда Іванівна,Катя,17.08.2018
594,380978194978,Клименко Катерина Борисовна,Катя,17.08.2018
595,380973793020,Митчинский Сергей Алексеевич,Катя,17.08.2018
596,380936355150,Овсянник Илона Васильевна,Виталий,20.08.2018
597,380664054563,Николенко Анна Александровна,Катя,21.08.2018
598,380972643776,Мирошниченко Татьяна Ивановна,Катя,21.08.2018
599,380633930922,Глагольева Светлана Александровна,Оля,21.08.2018
600,380963770079,Горбатюк Павло Карпович,Катя,21.08.2018
601,380669819740,Завьялова Татьяна Анатольевна,Оля,21.08.2018
602,380966653551,Герасимчук Юлия Михайловна,Виталий,21.08.2018
603,380667108558,Авдеенко Ирина Михайловна,Катя,21.08.2018
604,380977503510,Боштан Юлия Николаевна,Катя,21.08.2018
605,380677312717,Пинчук - Николайчук Владимир Петрович,Оля,21.08.2018
606,380958464497,Зачек Ольга Ивановна,Оля,21.08.2018
607,380996191427,Матвієнко Ольга Леонідівна,Катя,21.08.2018
608,380677749372,Онуфриева Елена Николаевна,Катя,21.08.2018
609,380979912195,Юзвишина Анна Михайловна,Паша ,22.08.2018
610,380633021399,Криничка Катерина Владиславівна,Катя,22.08.2018
611,380980470217,Вакалюк Олена Миколаївна,Паша ,22.08.2018
612,380674446854,Коваленко Светлана Николаевна,Виталий ,22.08.2018
613,380505713702,Добродеева Наталия Степановна,Виталий ,22.08.2018
614,380935004339,Викаренко Інесса Андріївна,Виталий ,22.08.2018
615,380673293026,Газенко Сергей Валерьевич,Виталий ,23.08.2018
616,380677539472,Богодельникова Татьяна  Владимировна,Виталий ,23.08.2018
617,380978333555,Ярошенко Людмила Костянтиновна,Виталий ,23.08.2018
618,380952700604,Радушинская Виктория Витальевна,Виталий ,23.08.2018
619,380675886054,Бірук Майя Павлівна,Виталий ,23.08.2018
620,380932463233,Коблош Наталія Дмитрівна,Паша ,23.08.2018
621,380507484570,Петренко Наталия Алексеевна,Виталий ,23.08.2018
622,380677036608,Архипова Нінель Андріївна,Паша ,23.08.2018
623,380633296838,Тюрина Наталия Андреевна,,23.08.2018
624,380676972036,Григорович Лідія Василівна,Паша ,23.08.2018
625,380502397715,Кушнир  Майя  Анатольевна,Виталий ,23.08.2018
626,380677871234,Охрименко Наталья Станиславовна,Виталий ,27.08.2018
627,380978332346,Михалюк Лариса Адамівна,Виталий ,27.08.2018
628,380689312521,Топалова Елена Михайловна,Виталий ,27.08.2018
629,380679745579,Яценко Наталья Николаевна,Оля,28.08.2018
630,380675087466,Миценко Клавдия Алексеевна,Оля,28.08.2018
631,380674401175,Поволоцька Тетяна Володимирівна,Виталий ,28.08.2018
632,380930702560,Трощановская Людмила Александровна,Оля,28.08.2018
633,380675000945,Ліщенко Інеса Сергіївна,Паша,28.08.2018
634,380636195099,Чеховская Светлана Леонидовна,Катя,28.08.2018
635,380976000007,Невишна Юлія Віталіївна,Паша,28.08.2018
636,380934979101,Терлецкая-Абрамова Татьяна Константиновна,Катя,28.08.2018
637,380937621555,Кардаш Артем Миколайович,Катя,28.08.2018
638,380977511017,Мащак Наталья Петровна,Катя,28.08.2018
639,380672788259,Качаева Наталия Ивановна,Виталий ,28.08.2018
640,380671087017,Куценко Оксана Константиновна,Оля,28.08.2018
641,380675055881,Марченко Наталья Васильевна,Оля,28.08.2018
642,380967289835,Курило Дарина Юриевна,Оля,28.08.2018
643,380936325676,Мельник Наталия Владимировна,Оля,29.08.2018
644,380963001618,Гуменюк Ліна Миколаівна,Катя,29.08.2018
645,380677408480,Баранова Олена Володимирівна,Оля,29.08.2018
646,380502863478,Крикончук Галина Александровна,Катя,29.08.2018
647,380675032186,Глуговський Олександр Леонідович,Катя,29.08.2018
648,380679735129,Хасанова Ирина Вениаминовна,Оля,29.08.2018
649,380931503886,Черняховская Марина Вадимовна,Катя,29.08.2018
650,380681279111,Колчева Юлия Григориевна,Оля,30.08.2018
651,380936093459,Когосян Маріне Карапетівна,Оля,30.08.2018
652,380509372413,Андриенко Владимир Николаевич,Виталий,30.08.2018
653,380662937961,Перевертнюк Наталья Николаевна,Оля,30.08.2018
654,380674783544,Ребекевша Татьяна Александровна,Виталий,31.08.2018
655,380936843212,Костюченко Лидия Владимировна,Катя,31.08.2018
656,380677245113,Калюжная Татьяна Ивановна,Катя,31.08.2018
657,380674671110,Стародуб Людмила Николаевна,Виталий,31.08.2018
658,380930209517,Сіракова Олена Миколаївна,Виталий,31.08.2018
659,380675016644,Матусевич Галина Іванівна,Оля,31.08.2018
660,380973660171,Клевачеева Ирина Анатолиевна,Оля,31.08.2018
661,380987622777,Маланчук Юлия Николаевна,Оля,31.08.2018
662,380676434490,Косюга (Ермолова) Анжелика Павловна,Катя,31.08.2018
663,380665027343,Стригун Анжела Аугустасовна,Виталий,31.08.2018
664,380953890187,Осадчая  Светлана  Емельяновна,Оля,31.08.2018
665,380974105278,Татаренко Людмила Федоровна,Оля,31.08.2018
666,380661404462,Захарова Нина Георгиевна,Оля,31.08.2018
667,380936987288,Сюдмак Ольга Романовна,Паша,03.09.2018
668,380503514372,Живецкая Алла Антоновна,Паша,03.09.2018
669,380937767262,Крута Лариса Евгеньевна,Катя,03.09.2018
670,380954544250,Альюсеф Майя Хайдарівна,Оля,03.09.2018
671,380664182222,Овсянникова Татьяна Витальевна,Виталий,03.09.2018
672,380964944433,Пронин Алексей Владимирович,Паша,03.09.2018
673,380975645865,Офтальмологический центр КНП КДЦ Печерского района,Оля,03.09.2018
674,380672839130,Сикачова Ирина Сергеевна,Виталий,03.09.2018
675,380506271838,Евграфов Андрей Анатольевич,Катя ,03.09.2018
676,380978005508,Галич Тамара Федоровна,Катя ,04.09.2018
677,380673887377,Бевз Татьяна Николаевна,Оля,04.09.2018
678,380674587264,Стадніченко Ганна Миколаївна,Виталий,04.09.2018
679,380677850955,Куликова Ирина Александровна,Паша,04.09.2018
680,380974315034,Грабовская Ольга Александровна,Оля,04.09.2018
681,380956912648,Капустенко Анна Валериевна,Паша,04.09.2018
682,380679640121,Савчук Наталія Володимирівна,Паша,04.09.2018
683,380636694400,Батаева Алла Игоревна,Оля,04.09.2018
684,380675053079,Кизим Светлана Владимировна,Виталий,04.09.2018
685,380675021664,Броді Наталія Іванівна,Виталий,04.09.2018
686,380989687709,Боюка Ольга Юрьевна,Катя ,04.09.2018
687,380503349427,Мазур Тарас Миколайович,Паша,05.09.2018
688,380677659381,Колибабчук Оксана Владимировна,Виталий ,05.09.2018
689,380936530616,Корнеева Людмила Алексеевна,Виталий,05.09.2018
690,380973070170,Шклярук Ольга Ивановна,Оля,05.09.2018
691,380675962616,Пономаренко Катерина Владимировна,Виталий,05.09.2018
692,380633774974,Хомяк Екатерина Петровна,Катя ,05.09.2018
693,380679154993,Шачковская Олена Володимирівна,Катя,05.09.2018
694,380677731985,Гаврилюк Елена Григорьевна,Виталий,05.09.2018
695,380634951003,Смагина Светлана Юрьевна,Катя ,05.09.2018
696,380989077987,Борисевич Михаил Михайлович,Катя,05.09.2018
697,380631311889,Кобзар Владимир Леонидович,Катя ,05.09.2018
698,380672931598,Рось Михаил Федорович,Катя ,05.09.2018
699,380661633708,Бондарь Виталий Иванович,Катя ,05.09.2018
700,380931491354,Кульчицкий Дмитрий Викторович,Катя ,05.09.2018
701,380994399671,Харламова Олена Петрівна,Виталий ,05.09.2018
702,380962215033,Бородина Мария Степановна,Катя,06.09.2018
703,380974531645,Ткаченко Наталія Анатоліївна,Оля,06.09.2018
704,380675372271,Супрун Ольга Ивановна,Оля ,06.09.2018
705,380984523539,Лазарева  Татьяна Борисовна,Оля ,06.09.2018
706,380950729669,Тимошева  Людмила Ивановна,Оля ,06.09.2018
707,380963602503,Рокицька Людмила  Владимировна,Оля ,06.09.2018
708,380680130389,Михалевич Наталія Федорівна,Паша ,06.09.2018
709,380504108812,Матюхина Алла Владимировна,Виталий,06.09.2018
710,380992398895,Чеченєв Ігор Олександрович,Паша ,06.09.2018
711,380977030303,Манжура Олександр Іванович,Паша ,06.09.2018
712,380502554474,Головач Мария Ивановна,Оля,06.09.2018
713,380984768431,Синицина Лилия Николаевна,Оля,07.09.2018
714,380936365516,Моцак Татьяна Михайловна,Оля,07.09.2018
715,380663693110,Рудницкая Лилия Анатольевна,Оля,07.09.2018
716,380667870432,Гулюк Ярослав Александрович,Оля,07.09.2018
717,380679707034,Скаченко Елизавета Игоревна,Катя,07.09.2018
718,380982078829,Дорошенко Ирина Григориевна,Оля,07.09.2018
719,380637699113,Носенко Виктория Владимировна,Оля,07.09.2018
720,380952404868,Рудовская Лидия Александровна,Оля,07.09.2018
721,380679926703,Аксенов Павел Валериевич,Оля,07.09.2018
722,380979461633,Гриша Елена Александровна,Виталий,10.09.2018
723,380978772304,Игнатова Мария Артуровна,Катя,10.09.2018
724,380980964656,Гераскіна Ірина Валентинівна,Оля,10.09.2018
725,380971632461,Лук'янов Валерій Григорович,Оля,10.09.2018
726,380677764602,Ляшко Леся Валентинівна,Оля,10.09.2018
727,380954373919,Круторогова Ирина Володимировна,Оля ,10.09.2018
728,380968511879,Копил Віталія Вікторовна,Оля,10.09.2018
729,380679131672,Иваненко Тамара Викторовна,Оля,10.09.2018
730,380979728669,Филончук Виталий Петрович,Катя,11.09.2018
731,380638197657,Доброгорская Алла Петровна,Оля,11.09.2018
732,380978265188,Кийко Виктория Викторовна,Катя,11.09.2018
733,380992293785,Аракчеева Кристина Олеговна,Катя,11.09.2018
734,380677870195,Цокало виктория Николаевна,Оля,11.09.2018
735,380954198864,Маслеева Светлана Емельяновна,Катя,11.09.2018
736,380975116865,Контарук Людмила Альбиновна,Оля,11.09.2018
737,380963623119,Токарчук Татьяна Витальевна,Катя,11.09.2018
738,380631073541,Подрезова Виктория Владимировна,Виталий ,11.09.2018
739,380507087650,Бацюра Анна Владимировна,Оля,11.09.2018
740,380983132283,Коваль Нина Михайловна,Катя,11.09.2018
741,380682571416,Гончарук Виталий Анатольевич,Катя,11.09.2018
742,380679671822,Григорьева Людмила Васильевна,Виталий ,11.09.2018
743,380634357054,Гришко Ольга Володимирівна,Катя,11.09.2018
744,380995661543,Литаш Генадий Иванович,Оля,11.09.2018
745,380935020469,Поберей Дарина Николаевна,Оля,11.09.2018
746,380982560525,Конотопенко Ольга Владимировна,Оля,11.09.2018
747,380675059499,Зинченко Андрей Владимирович,Оля,11.09.2018
748,380664501921,Гончаренко Олександр Олександрович,Виталий ,12.09.2018
749,380936708412,Тертична Наталія Петрівна,Паша ,12.09.2018
750,380938401017,Пермякова Інна Олександрівна,Паша ,12.09.2018
751,380975376194,Цуркан Валерій Івпновіч,Виталий,12.09.2018
752,380661205420,Закусило Світлана Олександрівна,Паша ,12.09.2018
753,380979881879,Старостина Ольга Анатольевна,Виталий ,12.09.2018
754,380630537222,Фрич Евгений Анатолиевич,Оля,12.09.2018
755,380507790867,Деревьянченко Ольга Леонидовна,Виталий ,12.09.2018
756,380959260370,Житкова Светлана Никитична,Оля,12.09.2018
757,380503445635,Губар Ірина Анатоліївна,Катя,12.09.2018
758,380506755187,Воронець Олександр Борисович,Катя,12.09.2018
759,380662422590,Ванда Мария Игоревна,Виталий,12.09.2018
760,380956001305,Синельниченко Татьяна Васильевна,Виталий,12.09.2018
761,380502470069,Куцман Олександр Николаевич,Виталий ,12.09.2018
762,380503567533,Зелінскька Валентина Станіславівна,Виталий,13.09.2018
763,380962812511,Васильева Наталия Витальевна,Катя,13.09.2018
764,380509636763,Тимошенко Алла Николаевна,Оля,13.09.2018
765,380664729324,Шуляренко Виктория Михайловна,Оля,13.09.2018
766,380507424661,Гнездилова Зинаида Николаевна,Виталий,13.09.2018
767,380678508828,Шкуратова Валентина Александровна,Катя,13.09.2018
768,380974374327,Райко Анатолий Алексеевич,Виталий ,13.09.2018
769,380666166696,Гузь Ігор Всеволодович,Паша ,13.09.2018
770,380502347576,Маслюгова Татьяна Леонидовна,Катя,13.09.2018
771,380667405780,Редька Игорь Витальевич,Виталий,13.09.2018
772,380979721769,Гонта Олена Олегівна,Паша ,13.09.2018
773,380980490654,Бровченко Александр Анатольевич,Катя,13.09.2018
774,380672422514,Левицька-Федоренко Неля Миколаївна,Виталий,13.09.2018
775,380980549410,Зиновьева Наталья Сергеевна,Катя,13.09.2018
776,380986225013,Соколова Анастасия Александровна,Виталий,13.09.2018
777,380961364924,Подгаевская Наталия Викторовна,Паша ,13.09.2018
778,380674469854,Хромец Ирина Юрьевна,Паша ,14.09.2018
779,380975113842,Биченко Вера Петровна,Оля,14.09.2018
780,380675033501,Чумакова Надежда Михайловна,Катя,14.09.2018
781,380676611503,Граждан Анна Викторовна,Паша ,14.09.2018
782,380995116764,Годна Людмила Петровна,Оля,14.09.2018
783,380632738913,Швець Виктория Валентиновна,Оля,14.09.2018
784,380509032985,Кривобук Олена Григорівна,Паша ,14.09.2018
785,380979137611,Лысак Наталья Аркадиевна,Виталий,14.09.2018
786,380502039820,Головков Виктор Владимирович,Паша ,14.09.2018
787,380504446990,Зражевская Ирина Анатольевна,Виталий,14.09.2018
788,380955156843,Горностай Марина Валеріївна,Катя,14.09.2018
789,380953369409,Черненко Оксана Борисовна,Катя,14.09.2018
790,380932031611,Пикульская Юлия Васильевна,Катя,14.09.2018
791,380675994010,Ломага Василь Михайлович,Паша ,14.09.2018
792,380954155179,Пашевина Людмила Александровна,Катя,14.09.2018
793,380675389988,Будченко Евгений Анатолиевич,Паша ,14.09.2018
794,380503842993,Подковская Галина Михайловна,Виталий ,14.09.2018
795,380679788500,Лаврова Тамара Евгеневна,Паша ,14.09.2018
796,380974778044,Гарматюк Ярослава Григорьевна,Виталий ,14.09.2018
797,380991992213,Озейчук Валентина Петровна,Виталий,14.09.2018
798,380667377600,Олексиенко Ольга Григорьевна,Виталий ,14.09.2018
799,380679306241,Мазур Наталья Анатоливна,Паша ,17.09.2018
800,380984801063,Сулима Нина Васильевна,Катя,17.09.2018
801,380674565717,Ветог Галина Васильевна,Паша ,17.09.2018
802,380674413645,Цуркан Наталья Григорьевна,Виталий ,17.09.2018
803,380672850081,Рудоманова Лидия Григоровна,Паша ,17.09.2018
804,380669789821,Бацюра Алла Валеріївна,Паша,17.09.2018
805,380634888432,Сосновенко Светлана Анатольевна,Катя ,17.09.2018
806,380963849954,Глухов Владимир Степанович,Паша ,17.09.2018
807,380973651137,Маснюк Наталия Борисовна,Паша ,17.09.2018
808,380669909362,Людвиченко Надежда  Петровна,Катя ,17.09.2018
809,380677693627,Тарасенко Николай Иванович,Оля ,17.09.2018
810,380668071750,Ярошенко Ольга Николаевна,Катя,18.09.2018
811,380675861846,Борис Наталія Валеріївна,Паша,18.09.2018
812,380679174030,Саченко Ольга Георгіївна,Паша,18.09.2018
813,380972831018,Янчук Алла Яковлевна,Катя,19.09.2018
814,380673468357,Кормухина Наталья Ивановна,Виталий ,19.09.2018
815,380677476591,Аносова Марина Владимировна,Катя,19.09.2018
816,380961984757,Лисовик Людмила Тимофеевна,Виталий ,19.09.2018
817,380962142653,Дячук Антонина Андреевна,Виталий ,19.09.2018
818,380931396397,Карманюк Галина Адамовна,Катя,19.09.2018
819,380975230404,Калюжна Татьяна Васильевна,Виталий ,19.09.2018
820,380633877003,Гребенюк Дарина Ивановна,Паша,19.09.2018
821,380933137036,Походило Ольга Василівна,,19.09.2018
822,380672864488,Коваленко Анатолий Викторович,Катя,19.09.2018
823,380961168651,Селецька Анеля Владиславівна,Паша,19.09.2018
824,380965606782,Головань Федір Анатолійович,Катя,19.09.2018
825,380677992848,Шаповалова Елена Николаевна,Виталий ,19.09.2018
826,380990546279,Курнікова Олена Анатоліївна,Катя,19.09.2018
827,380987099950,Кушнір Ганна Петрівна,Виталий ,19.09.2018
828,380995693723,Медвидь Антонина Ивановна,Виталий ,20.09.2018
829,380677709549,Заболотна Любовь Михайловна,Оля,20.09.2018
830,380508378034,Браун Лилия Степановна,Катя,20.09.2018
831,380631455061,Вакуловский Александр Николаевич,Оля,20.09.2018
832,380505972354,Горобец Инна Михайловна,Виталий ,20.09.2018
833,380672462564,Есипова Лариса Викторовна,Оля,20.09.2018
834,380630445226,Ляшиченко Инна Николаевна,Оля,20.09.2018
835,380677809335,Губанов Сергей Юрьевич,Оля,20.09.2018
836,380972147979,Волошина Наталия Юрьевна,Оля,20.09.2018
837,380677709152,Заболотный Игорь Владимирович,Оля,20.09.2018
838,380975006222,Федина Наталья Ивановна,Оля,20.09.2018
839,380968378705,Іванова Ольга Юріївна,Катя,20.09.2018
840,380993271279,Башинская Валентина Васильевна,Оля,20.09.2018
841,380978949804,Бондаренко Тетяна Борисівна,Паша,20.09.2018
842,380979419083,Задерей Ірина Петрівна,Оля,20.09.2018
843,380984675464,Бугаева Зинаида Васильевна,Оля,20.09.2018
844,380677709479,Чирныш Татьяна Васильевна,Оля,20.09.2018
845,380955954627,Крупник Ольга Дмитриевна,Виталий ,20.09.2018
846,380987756293,Тураев Роман Георгийович,Оля,20.09.2018
847,380989938902,Мельничук Юлія Дмитрівна,Виталий ,20.09.2018
848,380975459437,Матковская Наталья Николаевна,Оля,20.09.2018
849,380989714156,Кобенко Юлия Валериевна,Оля,20.09.2018
850,380981329193,Асатрян Тамара Липаритовна,Оля,21.09.2018
851,380933614653,Клименко Виктория Викторовна,Оля,21.09.2018
852,380964517743,Мельник Анна Николаевна,Катя,21.09.2018
853,380675985134,Єрьоменко Зінаіда Володимирівна,Катя,21.09.2018
854,380506818633,Полонець Людмила Леонідівна,Виталий ,21.09.2018
855,380634534361,Грабарова-Головко Светлана Викторовна,Оля,21.09.2018
856,380939685415,Шведенко Юлия Ивановна,Виталий ,21.09.2018
857,380982665517,Мартынюк Татьяна Анатолиевна,Оля,21.09.2018
858,380673025594,Трохименко Оксана Олеговна,Оля,21.09.2018
859,380995228105,Архирий Ольга Владимировна,Катя,21.09.2018
860,380688966960,Олексин Артур Петрович,Виталий ,21.09.2018
861,380671747811,Сакевич Олексей Евгеньевич,Виталий ,21.09.2018
862,380667301425,Гринчук Людмила Николаевна,Виталий ,21.09.2018
863,380636170702,Булда Оксана Владимировна,Виталий ,21.09.2018
864,380505900418,Евсеев Юрий Георгиевич,Оля,21.09.2018
865,380687103703,Белкин Виктор Михайлович,Оля,21.09.2018
866,380967897623,Лойко Александр Борисович,Виталий ,21.09.2018
867,380972265909,Рябоконь Павло Володимирович,Оля,21.09.2018
868,380662436527,Горбатюк Иван Михайлович,Оля,21.09.2018
869,380677694372,Артеменко Игорь Сергеевич,Виталий ,24.09.2018
870,380979100137,Варченко Леся Михайлівна,Катя,24.09.2018
871,380673214671,Луценко Лариса Андреевна,Катя,24.09.2018
872,380963367415,Большакова Ирина Анатолиевна,Оля,24.09.2018
873,380506855344,Явнюк Валентина Владимировна,Катя,24.09.2018
874,380669879965,Линец Анатолий Петрович,Виталий ,24.09.2018
875,380979022508,Лисовая Елена Владимировна,Катя,24.09.2018
876,380956003645,Куць Зінаїда Миколаївна,Паша ,24.09.2018
877,380503526922,Лопушенко Наталья Ивановна,Катя,24.09.2018
878,380667370449,Подобед Марина Дмитриевна,Оля,24.09.2018
879,380660875708,Вадачкория Этери Вахтанговна,Виталий ,24.09.2018
880,380507756737,Собовой Олег Михайлович,Оля,24.09.2018
881,380990370533,Житинская Алла Леонидовна,Оля,24.09.2018
882,380679792052,Гутаревич Галина Александровна,Катя,24.09.2018
883,380503838081,Киселева Ирина Олександровна,Катя,24.09.2018
884,380673575722,Хуриленко Виктор Никооаевич,Оля,24.09.2018
885,380979531351,Сафинивська Нина Зиновьевна,Оля,24.09.2018
886,380508607076,Федорук Інна Вікторівна,Оля,24.09.2018
887,380961173708,Геращенко Александра Владимировна,Оля,25.09.2018
888,380677577092,Али  Салям  Сахибович,Оля,25.09.2018
889,380682518373,Плюснин Андрей Юрьевич,Паша ,25.09.2018
890,380508234851,Ковальчук Игорь Владимирович,Оля,25.09.2018
891,380982543129,Лукаш Дмитрий Владимирович,Оля,25.09.2018
892,380951779158,Антонюк Татьяна Ивановна,Виталий ,25.09.2018
893,380675051149,Кравченко Александр Викторович,Оля,25.09.2018
894,380979169166,Яровой Дмитрий Михайлович,Оля,25.09.2018
895,380950521191,Паршиков Юрий Александрович,Оля,26.09.2018
896,380993117513,Старинко Катерина Петрівна,Паша ,26.09.2018
897,380950546137,Ткаченко Юлия Юрьевна,Катя,26.09.2018
898,380971633075,Таборовець Микола Іванович,Катя,26.09.2018
899,380739674641,Лаврукевич Наталия Ивановна,Катя,27.09.2018
900,380687063775,Дякив Ирина Владимировна,Оля,27.09.2018
901,380675051883,Неделько Наталья Юрьевна,Оля,27.09.2018
902,380509523458,Лакуша Елена Викторовна,Оля,27.09.2018
903,380506480763,Дружченко Татьяна Филипповна,Оля,27.09.2018
904,380937683959,Щаслива Виталия Линишная,Паша ,27.09.2018
905,380632355558,Гарницька Анна Володимирівна,Паша ,27.09.2018
906,380504110479,Белоусов Игорь Олегович,Паша ,27.09.2018
907,380977883873,Андрущенко Наталия Викторовна,Оля,27.09.2018
908,380930550551,Марков Артем Игоревич,,28.09.2018
909,380939219707,Тарасюк Марина  Иосиповна,Виталий ,28.09.2018
910,380934265879,Кормышева Виктория Анатольевна,Виталий ,02.10.2018
911,380634807382,Велько Виктория Виталиевна,Оля,02.10.2018
912,380508639354,Феногенова Ирина Алексеевна,Оля,03.10.2018
913,380965368801,Петренко Петро Петрович,Виталий ,03.10.2018
914,380967285463,Репецька Людмила Іванівна,Виталий ,03.10.2018
915,380633168914,Наумова Надія Іванівна,Виталий ,04.10.2018
916,380661761236,Козісь Андрій Миколайович,Виталий ,04.10.2018
917,380987373764,Пушка Наталья Васильевна,Оля,04.10.2018
918,380667661706,Корнійчук Володимир Петрович,Виталий ,04.10.2018
919,380505708211,Мельник Елена Анатолиевна,Катя,04.10.2018
920,380679276452,Глотова Галина Евгеньевна,Виталий ,05.10.2018
921,380675975947,Карасьова Наталія  Яківна,Оля,05.10.2018
922,380979881889,Трачук Тетяна Миколаївна,Паша ,05.10.2018
923,380977646474,Наталюк Олександр Миколайович,Виталий ,05.10.2018
924,380679752797,Каплун Андрій Миколайович,Паша ,05.10.2018
925,380632757573,Семакова Светлана Петровна,Виталий ,05.10.2018
926,380639452860,Семененко Микола Миколайович,Паша ,05.10.2018
927,380677171831,Макаренко Виктор Олегович,Виталий ,08.10.2018
928,380672711157,Заяць Тетяна Іванівна,Паша ,08.10.2018
929,380964442669,Кирмач Анастасия Степановна,Катя,08.10.2018
930,380979839473,Корчадым Оксана Ярославовна,Виталий ,08.10.2018
931,380989088023,Пичик Валентина Васильевна,Катя,08.10.2018
932,380999275535,Гарачун Володимир Володимирович,Паша ,08.10.2018
933,380505230637,Головко Татьяна Петровна,Оля,08.10.2018
934,380675051049,Кравченко Валерия Сергеевна,Оля,08.10.2018
935,380973090621,Горбатюк Вікторія Миколаівна,Виталий ,08.10.2018
936,380954774467,Чеканова Татьяна Владимировна,Оля,08.10.2018
937,380976856602,Злова Татьяна Ивановна,Виталий ,10.10.2018
938,380636125729,Ризаненко Валентина Николаевна,Катя,10.10.2018
939,380936507879,Свириденко Дарья Александровна,Виталий ,10.10.2018
940,380977183955,Сидоренко Віталій Сергійович,Виталий,10.10.2018
941,380677786272,Жовтун Оксана Анатоліївна,,10.10.2018
942,380506706242,Плахотная Татьяна Васильевна,Оля,10.10.2018
943,380969067577,Кондратюк Елена Васильевна,Катя,11.10.2018
944,380667862799,Бойко Юрий Петрович,Виталий,11.10.2018
945,380503559655,Соколова Елена Георгиевна,Оля,11.10.2018
946,380953950302,Лаєнко Валентина Анатольевна,Катя,11.10.2018
947,380667842658,Петерко Тамара Алойсовна,Катя,11.10.2018
948,380683514463,Шляпцева Елена Михайловна,Виталий,11.10.2018
949,380934781848,Остапенко Галина Ивановна,Виталий,11.10.2018
950,380936999961,Кравчук Юрий Иванович,Оля,12.10.2018
951,380633518590,Гаврилюк Галина Васильевна,Виталий,16.10.2018
952,380664410225,Корнєєва Раіса Павлівна,Паша,16.10.2018
953,380671371945,Кащенко Ирина Николаевна,Катя,16.10.2018
954,380994162146,Альфавицкая Оксана Ивановна,Виталий,16.10.2018
955,380676837439,Трачук Олена Володим,Оля,16.10.2018
956,380676002098,Иргашова Гулжемал Рахметовна,Оля,17.10.2018
957,380679540428,Коваль Светлана Григорьевна,Виталий,17.10.2018
958,380503443599,Матюха Лариса Федоровна,Оля,17.10.2018
959,380678999545,Бондар Тетяна Володимирівна,Виталий,17.10.2018
960,380662241230,Артемова Людмила Ивановна,Виталий,18.10.2018
961,380677954141,Лазина Ольга Петровна,Оля,18.10.2018
962,380632448331,Минченко Дмитрий Александрович,Виталий,18.10.2018
963,380733108096,Корольова Руслана Викторовна,Оля,18.10.2018
964,380663247089,Данилевська Інеса Валентинівна,Паша,19.10.2018
965,380984692064,Таран Алла Іванівна,Паша,19.10.2018
966,380985393585,Ткач Марина Валеріївна,Паша,19.10.2018
967,380509173470,Новаковская Оксана Петровна,Света,22.10.2018
968,380933997474,Кийченко Юрий Алексеевич,Света,22.10.2018
969,380961838959,Сивенюк Сергей Викторович,Виталий,22.10.2018
970,380988162699,Крамаренко Станіслав Сергійович,Паша,23.10.2018
971,380663604410,Ковтун Галина Ивановна,Виталий,24.10.2018
972,380994811857,Заболотна Олена Євгеніївна,Виталий,24.10.2018
973,380674442407,Мельниченко Марина Леонидовна,Виталий,25.10.2018
974,380677489447,Петровський Олег Володимирович,Света,25.10.2018
975,380667664235,Федченко Олена Володимирівна,Виталий,25.10.2018
976,380672394103,Нефедова Любовь Александровна,Света,25.10.2018
977,380994720902,Каминская - Фурса Наталия Ивановна,Света,25.10.2018
978,380677486721,Мирошниченко Олег Дмитриевич,Света,26.10.2018
979,380978082043,Рощук Юлія Богданівна,Паша,26.10.2018
980,380631981781,Мартиненко Ярослава Юріівна,Паша,29.10.2018
981,380977036672,Буженко Алла Ивановна,Света,30.10.2018
982,380672637404,Барабаш Людмила Миколаівна,Паша,30.10.2018
983,380672652967,Ярошевич Олена Вальдемарівна,Паша,31.10.2018
984,380638997254,Сергеева Наталья Александровна,Виталий,31.10.2018
985,380971295162,Кириленко Любов Миколаівна,Паша,31.10.2018
986,380972206642,Дученко Тетяна Федорівна,Паша,31.10.2018
987,380675999566,Запорожченко Юлия Сергеевна,Оля,31.10.2018
988,380985191414,Гуральник Ганна Федорiвна,Оля,01.11.2018
989,380509326722,Добра Габриела Імревна,Оля,01.11.2018
990,380636555375,Стахнів Галина Вікторівна,Оля,01.11.2018
991,380993565456,Ласориб Тамара Степанівна,Паша ,01.11.2018
992,380674591110,Кравчук Євдокія Марківна,Оля,01.11.2018
993,380937079409,Сабадаш Алла Григорівна,Паша,01.11.2018
994,380964512233,Босий  Олег Анатолійович,Света ,01.11.2018
995,380508012171,Джупіна Наталья Юріівна,Оля,01.11.2018
996,380987005636,Козловская Людмила Василiвна,Оля,01.11.2018
997,380967657111,Лиходiд Людмила Василiвна,Оля,01.11.2018
998,380968455064,Голубець Любов Олександрівна,Катя,05.11.2018
999,380638207740,Шпагіна Олена Василівна,Паша,05.11.2018
1000,380506863879,Лысенко Екатерина Эдуардовна,Паша,05.11.2018
1001,380977599674,Дорогая Инна Михайловна,,12.02.2018
1002,380632422992,Глазунова Ірина Олександрівна,Катя,05.11.2018
1003,380971373486,Петрук Светлана Валентиновна,Катя,05.11.2018
1004,380982247747,Півоваров Андрій Русланович,Виталий,05.11.2018
1005,380679942960,Калиниченко Любовь Николаевна,Оля,06.11.2018
1006,380976639671,Мазуренко Мария Петровна,Оля,06.11.2018
1007,380679364059,Селезньов Сергій Борисович,Паша,06.11.2018
1008,380973495115,Романюк Светлана Викторовна,Оля,06.11.2018
1009,380988521964,Лукьяница Василий Тимофеевич,Паша,06.11.2018
1010,380661276174,Вербицький Ігор Володимирович,Оля ,06.11.2018
1011,380635948097,Антонова Валентина Николаевна,Виталий,07.11.2018
1012,380630654875,Гофман Ирина Михайловна,Света,07.11.2018
1013,380997842112,Аббас-заде Евгения Юрьевна,Виталий,07.11.2018
1014,380991260580,Сегеда Анетта Михайловна,Оля,07.11.2018
1015,380671054767,Чайкин Евгений Евгениевич,Оля,07.11.2018
1016,380637712927,Кириленко Ярослав Владимирович,Оля,08.11.2018
1017,380673879695,Литвин Вита Николаевна,Виталий,08.11.2018
1018,380502114169,Шершнева Любовь Гавриловна,Катя,08.11.2018
1019,380963033120,Подолянко Александр Николаевич,Виталий,08.11.2018
1020,380984377177,Скорук Тамара Олександрівна,Паша,08.11.2018
1021,380678014143,Петренко Виктория Леонидовна,Оля,08.11.2018
1022,380983142588,Алтухова Леся Борисівна,Паша,08.11.2018
1023,380505848451,Юрчак Наталія Богданівна,Виталий,09.11.2018
1024,380963395677,Чорноокий Иван Михайлович,Оля,09.11.2018
1025,380507468470,Аблялимова Альбина Шевкетовна,Катя ,09.11.2018
1026,380678107277,Голышева Ирина Евгеньевна,Виталий,12.11.2018
1027,380632615314,Бердник Инна Александровна,Виталий,12.11.2018
1028,380965084965,Брильова Надія Василівна,Паша,12.11.2018
1029,380677409613,Твердая Алла Андреевна,Виталий,12.11.2018
1030,380955337087,Лібова Лідія Тимофіівна,Паша,12.11.2018
1031,380679148298,Бірюченко Ірина Володимирівна,Виталий,12.11.2018
1032,380503815884,Брозднякова Наталья Васильевна,Катя ,12.11.2018
1033,380951777899,Павлюк Наталья Петровна,Виталий,12.11.2018
1034,380506198000,Михайличенко Марина Александровна,Виталий,12.11.2018
1035,380663808060,Ніколаєвська Тетяна Йосипівна,Паша,12.11.2018
1036,380504185144,Казанжи Анна Іллівна,Катя ,12.11.2018
1037,380509883873,Андрусеньків Наталія Богданівна,Паша,12.11.2018
1038,380987395114,Курбатов Ярослав Валерьевич,Виталий,12.11.2018
1039,380962664824,Харкавий Іван Васильович,Катя ,12.11.2018
1040,380995625842,Абуталипова Людмила Александровна,Виталий,07.11.2018
1041,380673779055,Колісніченко Валентина Іванівна,Виталий,13.11.2018
1042,380977915888,Трейдуб Татьна Николаевна,Виталий,14.11.2018
1043,380664334091,Омельченко Людмила Николаевна,Виталий,14.11.2018
1044,380676953470,Гонцов Юрий Валентинович,Света,16.11.2018
1045,380661993844,Гречко Ольга Геннадиевна,Виталий,16.11.2018
1046,380675015747,Баюн Юрій Володимирович,Света,16.11.2018
1047,380679992486,Лисинчук Анна Анатольевна,Катя ,16.11.2018
1048,380974816735,Матюша Наталья Владимировна,Катя ,16.11.2018
1049,380979259998,Левченко Наталія Петрівна,Паша,16.11.2018
1050,380505466739,Майструк Виктор Иванович,Виталий,16.11.2018
1051,380672509209,Бокова Диана Ромеривна,Оля,19.11.2018
1052,380631676741,Приступа Оксана Анатолиевна,Оля,19.11.2018
1053,380951252969,Алиева Хабиба Адиловна,Оля,19.11.2018
1054,380661549411,Яковчук Оксана Станиславовна ,Катя ,19.11.2018
1055,380979477741,Аштаменко Татьяна Васильевна,Катя ,20.11.2018
1056,380986814218,Золотова Оксана Александровна,Катя ,20.11.2018
1057,380506225195,Вернигора Виктория Владимировна,Катя ,20.11.2018
1058,380506680808,Гурженко Юрий Николаевич,Света,21.11.2018
1059,380964229038,Ткаченко Павло Васильович,Паша,21.11.2018
1060,380974273243,Горпинченко Игорь Иванович,Света,21.11.2018
1061,380509450717,Нестеренко Кирилл Александрович,Катя ,21.11.2018
1062,380959399690,Ярута - Кузьмич Оксана Сергеевна,Оля,21.11.2018